{
    "hostName": "esp-async",

    "ftpUser": "root",
    "ftpPass": "",

    "ip": 50440384,
    "gateway": 16885952,
    "mask": 16777215,

    "ssid": "ESP-LF",
    "pass": "",
    "channel": 11
}
