<?xml version="1.0" encoding="utf-8"?>
<!DOCTYPE eagle SYSTEM "eagle.dtd">
<eagle version="8.3.2">
<drawing>
<settings>
<setting alwaysvectorfont="no"/>
<setting verticaltext="up"/>
</settings>
<grid distance="0.025" unitdist="inch" unit="inch" style="dots" multiple="1" display="yes" altdistance="5" altunitdist="mil" altunit="inch"/>
<layers>
<layer number="1" name="Top" color="4" fill="1" visible="yes" active="yes"/>
<layer number="16" name="Bottom" color="1" fill="1" visible="yes" active="yes"/>
<layer number="17" name="Pads" color="2" fill="1" visible="yes" active="yes"/>
<layer number="18" name="Vias" color="2" fill="1" visible="yes" active="yes"/>
<layer number="19" name="Unrouted" color="6" fill="1" visible="yes" active="yes"/>
<layer number="20" name="Dimension" color="24" fill="1" visible="yes" active="yes"/>
<layer number="21" name="tPlace" color="7" fill="1" visible="yes" active="yes"/>
<layer number="22" name="bPlace" color="7" fill="1" visible="yes" active="yes"/>
<layer number="23" name="tOrigins" color="15" fill="1" visible="yes" active="yes"/>
<layer number="24" name="bOrigins" color="15" fill="1" visible="yes" active="yes"/>
<layer number="25" name="tNames" color="7" fill="1" visible="yes" active="yes"/>
<layer number="26" name="bNames" color="7" fill="1" visible="yes" active="yes"/>
<layer number="27" name="tValues" color="7" fill="1" visible="yes" active="yes"/>
<layer number="28" name="bValues" color="7" fill="1" visible="yes" active="yes"/>
<layer number="29" name="tStop" color="7" fill="3" visible="no" active="yes"/>
<layer number="30" name="bStop" color="7" fill="6" visible="no" active="yes"/>
<layer number="31" name="tCream" color="7" fill="4" visible="no" active="yes"/>
<layer number="32" name="bCream" color="7" fill="5" visible="no" active="yes"/>
<layer number="33" name="tFinish" color="6" fill="3" visible="no" active="yes"/>
<layer number="34" name="bFinish" color="6" fill="6" visible="no" active="yes"/>
<layer number="35" name="tGlue" color="7" fill="4" visible="no" active="yes"/>
<layer number="36" name="bGlue" color="7" fill="5" visible="no" active="yes"/>
<layer number="37" name="tTest" color="7" fill="1" visible="no" active="yes"/>
<layer number="38" name="bTest" color="7" fill="1" visible="no" active="yes"/>
<layer number="39" name="tKeepout" color="4" fill="11" visible="yes" active="yes"/>
<layer number="40" name="bKeepout" color="1" fill="11" visible="yes" active="yes"/>
<layer number="41" name="tRestrict" color="4" fill="10" visible="yes" active="yes"/>
<layer number="42" name="bRestrict" color="1" fill="10" visible="yes" active="yes"/>
<layer number="43" name="vRestrict" color="2" fill="10" visible="yes" active="yes"/>
<layer number="44" name="Drills" color="7" fill="1" visible="no" active="yes"/>
<layer number="45" name="Holes" color="7" fill="1" visible="no" active="yes"/>
<layer number="46" name="Milling" color="3" fill="1" visible="no" active="yes"/>
<layer number="47" name="Measures" color="7" fill="1" visible="no" active="yes"/>
<layer number="48" name="Document" color="7" fill="1" visible="yes" active="yes"/>
<layer number="49" name="Reference" color="7" fill="1" visible="yes" active="yes"/>
<layer number="50" name="dxf" color="7" fill="1" visible="no" active="no"/>
<layer number="51" name="tDocu" color="7" fill="1" visible="yes" active="yes"/>
<layer number="52" name="bDocu" color="7" fill="1" visible="yes" active="yes"/>
<layer number="53" name="tGND_GNDA" color="7" fill="9" visible="no" active="no"/>
<layer number="54" name="bGND_GNDA" color="1" fill="9" visible="no" active="no"/>
<layer number="56" name="wert" color="7" fill="1" visible="no" active="no"/>
<layer number="57" name="tCAD" color="7" fill="1" visible="no" active="no"/>
<layer number="59" name="tCarbon" color="7" fill="1" visible="no" active="no"/>
<layer number="60" name="bCarbon" color="7" fill="1" visible="no" active="no"/>
<layer number="90" name="Modules" color="5" fill="1" visible="no" active="no"/>
<layer number="91" name="Nets" color="2" fill="1" visible="no" active="no"/>
<layer number="92" name="Busses" color="1" fill="1" visible="no" active="no"/>
<layer number="93" name="Pins" color="2" fill="1" visible="no" active="no"/>
<layer number="94" name="Symbols" color="4" fill="1" visible="no" active="no"/>
<layer number="95" name="Names" color="7" fill="1" visible="no" active="no"/>
<layer number="96" name="Values" color="7" fill="1" visible="no" active="no"/>
<layer number="97" name="Info" color="7" fill="1" visible="no" active="no"/>
<layer number="98" name="Guide" color="6" fill="1" visible="no" active="no"/>
<layer number="99" name="SpiceOrder" color="7" fill="1" visible="no" active="no"/>
<layer number="100" name="Muster" color="7" fill="1" visible="no" active="no"/>
<layer number="101" name="Patch_Top" color="12" fill="4" visible="yes" active="yes"/>
<layer number="102" name="Vscore" color="7" fill="1" visible="yes" active="yes"/>
<layer number="103" name="tMap" color="7" fill="1" visible="yes" active="yes"/>
<layer number="104" name="Name" color="16" fill="1" visible="yes" active="yes"/>
<layer number="105" name="tPlate" color="7" fill="1" visible="yes" active="yes"/>
<layer number="106" name="bPlate" color="7" fill="1" visible="yes" active="yes"/>
<layer number="107" name="Crop" color="7" fill="1" visible="yes" active="yes"/>
<layer number="108" name="tplace-old" color="10" fill="1" visible="yes" active="yes"/>
<layer number="109" name="ref-old" color="11" fill="1" visible="yes" active="yes"/>
<layer number="110" name="fp0" color="7" fill="1" visible="yes" active="yes"/>
<layer number="111" name="LPC17xx" color="7" fill="1" visible="yes" active="yes"/>
<layer number="112" name="tSilk" color="7" fill="1" visible="yes" active="yes"/>
<layer number="113" name="IDFDebug" color="7" fill="1" visible="yes" active="yes"/>
<layer number="114" name="Badge_Outline" color="7" fill="1" visible="yes" active="yes"/>
<layer number="115" name="ReferenceISLANDS" color="7" fill="1" visible="yes" active="yes"/>
<layer number="116" name="Patch_BOT" color="9" fill="4" visible="yes" active="yes"/>
<layer number="118" name="Rect_Pads" color="7" fill="1" visible="yes" active="yes"/>
<layer number="121" name="_tsilk" color="7" fill="1" visible="yes" active="yes"/>
<layer number="122" name="_bsilk" color="7" fill="1" visible="yes" active="yes"/>
<layer number="123" name="tTestmark" color="7" fill="1" visible="yes" active="yes"/>
<layer number="124" name="bTestmark" color="7" fill="1" visible="yes" active="yes"/>
<layer number="125" name="_tNames" color="7" fill="1" visible="yes" active="yes"/>
<layer number="126" name="_bNames" color="7" fill="1" visible="yes" active="yes"/>
<layer number="127" name="_tValues" color="7" fill="1" visible="yes" active="yes"/>
<layer number="128" name="_bValues" color="7" fill="1" visible="yes" active="yes"/>
<layer number="129" name="Mask" color="7" fill="1" visible="yes" active="yes"/>
<layer number="131" name="tAdjust" color="7" fill="1" visible="yes" active="yes"/>
<layer number="132" name="bAdjust" color="7" fill="1" visible="yes" active="yes"/>
<layer number="144" name="Drill_legend" color="7" fill="1" visible="yes" active="yes"/>
<layer number="150" name="Notes" color="7" fill="1" visible="yes" active="yes"/>
<layer number="151" name="HeatSink" color="7" fill="1" visible="yes" active="yes"/>
<layer number="152" name="_bDocu" color="7" fill="1" visible="yes" active="yes"/>
<layer number="153" name="FabDoc1" color="7" fill="1" visible="yes" active="yes"/>
<layer number="154" name="FabDoc2" color="7" fill="1" visible="yes" active="yes"/>
<layer number="155" name="FabDoc3" color="7" fill="1" visible="yes" active="yes"/>
<layer number="199" name="Contour" color="7" fill="1" visible="yes" active="yes"/>
<layer number="200" name="200bmp" color="1" fill="10" visible="yes" active="yes"/>
<layer number="201" name="201bmp" color="2" fill="10" visible="yes" active="yes"/>
<layer number="202" name="202bmp" color="3" fill="10" visible="yes" active="yes"/>
<layer number="203" name="203bmp" color="4" fill="10" visible="yes" active="yes"/>
<layer number="204" name="204bmp" color="5" fill="10" visible="yes" active="yes"/>
<layer number="205" name="205bmp" color="6" fill="10" visible="yes" active="yes"/>
<layer number="206" name="206bmp" color="7" fill="10" visible="yes" active="yes"/>
<layer number="207" name="207bmp" color="8" fill="10" visible="yes" active="yes"/>
<layer number="208" name="208bmp" color="9" fill="10" visible="yes" active="yes"/>
<layer number="209" name="209bmp" color="7" fill="1" visible="yes" active="yes"/>
<layer number="210" name="210bmp" color="7" fill="1" visible="yes" active="yes"/>
<layer number="211" name="211bmp" color="7" fill="1" visible="yes" active="yes"/>
<layer number="212" name="212bmp" color="7" fill="1" visible="yes" active="yes"/>
<layer number="213" name="213bmp" color="7" fill="1" visible="yes" active="yes"/>
<layer number="214" name="214bmp" color="7" fill="1" visible="yes" active="yes"/>
<layer number="215" name="215bmp" color="7" fill="1" visible="yes" active="yes"/>
<layer number="216" name="216bmp" color="7" fill="1" visible="yes" active="yes"/>
<layer number="217" name="217bmp" color="18" fill="1" visible="no" active="no"/>
<layer number="218" name="218bmp" color="19" fill="1" visible="no" active="no"/>
<layer number="219" name="219bmp" color="20" fill="1" visible="no" active="no"/>
<layer number="220" name="220bmp" color="21" fill="1" visible="no" active="no"/>
<layer number="221" name="221bmp" color="22" fill="1" visible="no" active="no"/>
<layer number="222" name="222bmp" color="23" fill="1" visible="no" active="no"/>
<layer number="223" name="223bmp" color="24" fill="1" visible="no" active="no"/>
<layer number="224" name="224bmp" color="25" fill="1" visible="no" active="no"/>
<layer number="225" name="225bmp" color="7" fill="1" visible="yes" active="yes"/>
<layer number="226" name="226bmp" color="7" fill="1" visible="yes" active="yes"/>
<layer number="227" name="227bmp" color="7" fill="1" visible="yes" active="yes"/>
<layer number="228" name="228bmp" color="7" fill="1" visible="yes" active="yes"/>
<layer number="229" name="229bmp" color="7" fill="1" visible="yes" active="yes"/>
<layer number="230" name="230bmp" color="7" fill="1" visible="yes" active="yes"/>
<layer number="231" name="231bmp" color="7" fill="1" visible="yes" active="yes"/>
<layer number="232" name="Eagle3D_PG2" color="7" fill="1" visible="yes" active="yes"/>
<layer number="233" name="Eagle3D_PG3" color="7" fill="1" visible="yes" active="yes"/>
<layer number="248" name="Housing" color="7" fill="1" visible="yes" active="yes"/>
<layer number="249" name="Edge" color="7" fill="1" visible="yes" active="yes"/>
<layer number="250" name="Descript" color="3" fill="1" visible="no" active="no"/>
<layer number="251" name="SMDround" color="12" fill="11" visible="no" active="no"/>
<layer number="254" name="cooling" color="7" fill="1" visible="yes" active="yes"/>
<layer number="255" name="routoute" color="7" fill="1" visible="yes" active="yes"/>
</layers>
<board>
<plain>
<wire x1="9.525" y1="31.75" x2="80.315" y2="31.75" width="0" layer="20"/>
<wire x1="80.315" y1="31.75" x2="80.315" y2="65.395" width="0" layer="20"/>
<wire x1="80.315" y1="65.395" x2="9.525" y2="65.395" width="0" layer="20"/>
<wire x1="9.525" y1="65.395" x2="9.525" y2="31.75" width="0" layer="20"/>
<text x="15.24" y="59.055" size="1.27" layer="1" font="vector">Groep</text>
<text x="17.78" y="56.515" size="1.27" layer="1" font="vector">12</text>
<text x="57.15" y="36.195" size="1.778" layer="1">Groep 12</text>
</plain>
<libraries>
<library name="8mux">
<packages>
<package name="DHVQFN-16-2.5X3.5MM">
<description>&lt;h3&gt;16-Pin DHVQFN (SOT763-1) - 2.5 x 3.5 x 0.85 mm&lt;/h3&gt;
&lt;p&gt;Package used by NXP 74HC4051BQ 8-channel analog mux/demux.&lt;/p&gt;
&lt;p&gt;&lt;a href="http://cache.nxp.com/documents/reflow_soldering/sot763-1_fr.pdf"&gt;NXP Footprint for reflow soldering&lt;/a&gt;&lt;/p&gt;
&lt;p&gt;&lt;a href="http://www.nxp.com/documents/data_sheet/74HC_HCT4051.pdf"&gt;Example Datasheet&lt;/a&gt;&lt;/p&gt;</description>
<wire x1="1.75" y1="1.25" x2="-1.75" y2="1.25" width="0.127" layer="51"/>
<wire x1="-1.75" y1="1.25" x2="-1.75" y2="-1.25" width="0.127" layer="51"/>
<wire x1="-1.75" y1="-1.25" x2="1.75" y2="-1.25" width="0.127" layer="51"/>
<wire x1="1.75" y1="-1.25" x2="1.75" y2="1.25" width="0.127" layer="51"/>
<polygon width="0.002540625" layer="51">
<vertex x="0.13" y="1.25"/>
<vertex x="0.37" y="1.25"/>
<vertex x="0.37" y="0.97" curve="-90"/>
<vertex x="0.25" y="0.85" curve="-90"/>
<vertex x="0.13" y="0.97"/>
</polygon>
<polygon width="0.002540625" layer="51">
<vertex x="-0.37" y="1.25"/>
<vertex x="-0.13" y="1.25"/>
<vertex x="-0.13" y="0.97" curve="-90"/>
<vertex x="-0.25" y="0.85" curve="-90"/>
<vertex x="-0.37" y="0.97"/>
</polygon>
<polygon width="0.002540625" layer="51">
<vertex x="-0.87" y="1.25"/>
<vertex x="-0.63" y="1.25"/>
<vertex x="-0.63" y="0.97" curve="-90"/>
<vertex x="-0.75" y="0.85" curve="-90"/>
<vertex x="-0.87" y="0.97"/>
</polygon>
<polygon width="0.002540625" layer="51">
<vertex x="-1.37" y="1.25"/>
<vertex x="-1.13" y="1.25"/>
<vertex x="-1.13" y="0.97" curve="-90"/>
<vertex x="-1.25" y="0.85" curve="-90"/>
<vertex x="-1.37" y="0.97"/>
</polygon>
<polygon width="0.002540625" layer="51">
<vertex x="0.63" y="1.25"/>
<vertex x="0.87" y="1.25"/>
<vertex x="0.87" y="0.97" curve="-90"/>
<vertex x="0.75" y="0.85" curve="-90"/>
<vertex x="0.63" y="0.97"/>
</polygon>
<polygon width="0.002540625" layer="51">
<vertex x="1.13" y="1.25"/>
<vertex x="1.37" y="1.25"/>
<vertex x="1.37" y="0.97" curve="-90"/>
<vertex x="1.25" y="0.85" curve="-90"/>
<vertex x="1.13" y="0.97"/>
</polygon>
<polygon width="0.002540625" layer="51">
<vertex x="-0.13" y="-1.25"/>
<vertex x="-0.37" y="-1.25"/>
<vertex x="-0.37" y="-0.97" curve="-90"/>
<vertex x="-0.25" y="-0.85" curve="-90"/>
<vertex x="-0.13" y="-0.97"/>
</polygon>
<polygon width="0.002540625" layer="51">
<vertex x="0.37" y="-1.25"/>
<vertex x="0.13" y="-1.25"/>
<vertex x="0.13" y="-0.97" curve="-90"/>
<vertex x="0.25" y="-0.85" curve="-90"/>
<vertex x="0.37" y="-0.97"/>
</polygon>
<polygon width="0.002540625" layer="51">
<vertex x="0.87" y="-1.25"/>
<vertex x="0.63" y="-1.25"/>
<vertex x="0.63" y="-0.97" curve="-90"/>
<vertex x="0.75" y="-0.85" curve="-90"/>
<vertex x="0.87" y="-0.97"/>
</polygon>
<polygon width="0.002540625" layer="51">
<vertex x="1.37" y="-1.25"/>
<vertex x="1.13" y="-1.25"/>
<vertex x="1.13" y="-0.97" curve="-90"/>
<vertex x="1.25" y="-0.85" curve="-90"/>
<vertex x="1.37" y="-0.97"/>
</polygon>
<polygon width="0.002540625" layer="51">
<vertex x="-0.63" y="-1.25"/>
<vertex x="-0.87" y="-1.25"/>
<vertex x="-0.87" y="-0.97" curve="-90"/>
<vertex x="-0.75" y="-0.85" curve="-90"/>
<vertex x="-0.63" y="-0.97"/>
</polygon>
<polygon width="0.002540625" layer="51">
<vertex x="-1.13" y="-1.25"/>
<vertex x="-1.37" y="-1.25"/>
<vertex x="-1.37" y="-0.97" curve="-90"/>
<vertex x="-1.25" y="-0.85" curve="-90"/>
<vertex x="-1.13" y="-0.97"/>
</polygon>
<polygon width="0.002540625" layer="51">
<vertex x="-1.75" y="0.13"/>
<vertex x="-1.75" y="0.37"/>
<vertex x="-1.47" y="0.37" curve="-90"/>
<vertex x="-1.35" y="0.25" curve="-90"/>
<vertex x="-1.47" y="0.13"/>
</polygon>
<polygon width="0.002540625" layer="51">
<vertex x="-1.75" y="-0.37"/>
<vertex x="-1.75" y="-0.13"/>
<vertex x="-1.47" y="-0.13" curve="-90"/>
<vertex x="-1.35" y="-0.25" curve="-90"/>
<vertex x="-1.47" y="-0.37"/>
</polygon>
<polygon width="0.002540625" layer="51">
<vertex x="1.75" y="-0.13"/>
<vertex x="1.75" y="-0.37"/>
<vertex x="1.47" y="-0.37" curve="-90"/>
<vertex x="1.35" y="-0.25" curve="-90"/>
<vertex x="1.47" y="-0.13"/>
</polygon>
<polygon width="0.002540625" layer="51">
<vertex x="1.75" y="0.37"/>
<vertex x="1.75" y="0.13"/>
<vertex x="1.47" y="0.13" curve="-90"/>
<vertex x="1.35" y="0.25" curve="-90"/>
<vertex x="1.47" y="0.37"/>
</polygon>
<rectangle x1="-1" y1="-0.5" x2="1" y2="0.5" layer="51"/>
<smd name="1" x="-1.8" y="-0.25" dx="0.9" dy="0.24" layer="1" cream="no"/>
<smd name="2" x="-1.25" y="-1.3" dx="0.9" dy="0.24" layer="1" rot="R90" cream="no"/>
<smd name="3" x="-0.75" y="-1.3" dx="0.9" dy="0.24" layer="1" rot="R90" cream="no"/>
<smd name="4" x="-0.25" y="-1.3" dx="0.9" dy="0.24" layer="1" rot="R90" cream="no"/>
<smd name="5" x="0.25" y="-1.3" dx="0.9" dy="0.24" layer="1" rot="R90" cream="no"/>
<smd name="6" x="0.75" y="-1.3" dx="0.9" dy="0.24" layer="1" rot="R90" cream="no"/>
<smd name="7" x="1.25" y="-1.3" dx="0.9" dy="0.24" layer="1" rot="R90" cream="no"/>
<smd name="8" x="1.8" y="-0.25" dx="0.9" dy="0.24" layer="1" rot="R180" cream="no"/>
<smd name="9" x="1.8" y="0.25" dx="0.9" dy="0.24" layer="1" rot="R180" cream="no"/>
<smd name="10" x="1.25" y="1.3" dx="0.9" dy="0.24" layer="1" rot="R270" cream="no"/>
<smd name="11" x="0.75" y="1.3" dx="0.9" dy="0.24" layer="1" rot="R270" cream="no"/>
<smd name="12" x="0.25" y="1.3" dx="0.9" dy="0.24" layer="1" rot="R270" cream="no"/>
<smd name="13" x="-0.25" y="1.3" dx="0.9" dy="0.24" layer="1" rot="R270" cream="no"/>
<smd name="14" x="-0.75" y="1.3" dx="0.9" dy="0.24" layer="1" rot="R270" cream="no"/>
<smd name="15" x="-1.25" y="1.3" dx="0.9" dy="0.24" layer="1" rot="R270" cream="no"/>
<smd name="16" x="-1.8" y="0.25" dx="0.9" dy="0.24" layer="1" cream="no"/>
<smd name="EP" x="0" y="0" dx="1.9" dy="0.9" layer="1" cream="no"/>
<rectangle x1="0.15" y1="-0.2" x2="0.55" y2="0.2" layer="31"/>
<rectangle x1="-0.55" y1="-0.2" x2="-0.15" y2="0.2" layer="31" rot="R180"/>
<circle x="-2.131" y="-1.631" radius="0.254" width="0" layer="21"/>
<wire x1="-1.877" y1="-0.5788" x2="-1.877" y2="-1.377" width="0.2032" layer="21"/>
<wire x1="-1.877" y1="1.377" x2="-1.877" y2="0.5788" width="0.2032" layer="21"/>
<wire x1="-1.5774" y1="1.377" x2="-1.877" y2="1.377" width="0.2032" layer="21"/>
<wire x1="1.877" y1="1.377" x2="1.5774" y2="1.377" width="0.2032" layer="21"/>
<wire x1="1.877" y1="0.5788" x2="1.877" y2="1.377" width="0.2032" layer="21"/>
<wire x1="1.877" y1="-1.377" x2="1.877" y2="-0.5788" width="0.2032" layer="21"/>
<wire x1="-1.877" y1="-1.377" x2="-1.5774" y2="-1.377" width="0.2032" layer="21"/>
<wire x1="1.5774" y1="-1.377" x2="1.877" y2="-1.377" width="0.2032" layer="21"/>
<rectangle x1="1.375" y1="0.155" x2="2.225" y2="0.345" layer="31"/>
<rectangle x1="1.375" y1="-0.345" x2="2.225" y2="-0.155" layer="31"/>
<rectangle x1="0.825" y1="-1.395" x2="1.675" y2="-1.205" layer="31" rot="R270"/>
<rectangle x1="0.325" y1="-1.395" x2="1.175" y2="-1.205" layer="31" rot="R270"/>
<rectangle x1="-0.175" y1="-1.395" x2="0.675" y2="-1.205" layer="31" rot="R270"/>
<rectangle x1="-0.675" y1="-1.395" x2="0.175" y2="-1.205" layer="31" rot="R270"/>
<rectangle x1="-1.175" y1="-1.395" x2="-0.325" y2="-1.205" layer="31" rot="R270"/>
<rectangle x1="-1.675" y1="-1.395" x2="-0.825" y2="-1.205" layer="31" rot="R270"/>
<rectangle x1="-2.225" y1="-0.345" x2="-1.375" y2="-0.155" layer="31" rot="R180"/>
<rectangle x1="-2.225" y1="0.155" x2="-1.375" y2="0.345" layer="31" rot="R180"/>
<rectangle x1="-1.675" y1="1.205" x2="-0.825" y2="1.395" layer="31" rot="R90"/>
<rectangle x1="-1.175" y1="1.205" x2="-0.325" y2="1.395" layer="31" rot="R90"/>
<rectangle x1="-0.675" y1="1.205" x2="0.175" y2="1.395" layer="31" rot="R90"/>
<rectangle x1="-0.175" y1="1.205" x2="0.675" y2="1.395" layer="31" rot="R90"/>
<rectangle x1="0.325" y1="1.205" x2="1.175" y2="1.395" layer="31" rot="R90"/>
<rectangle x1="0.825" y1="1.205" x2="1.675" y2="1.395" layer="31" rot="R90"/>
<text x="-2.413" y="0" size="0.6096" layer="25" font="vector" ratio="15" rot="R90" align="bottom-center">&gt;Name</text>
<text x="2.413" y="0" size="0.6096" layer="27" font="vector" ratio="15" rot="R90" align="top-center">&gt;Value</text>
</package>
</packages>
</library>
<library name="pinhead" urn="urn:adsk.eagle:library:325">
<description>&lt;b&gt;Pin Header Connectors&lt;/b&gt;&lt;p&gt;
&lt;author&gt;Created by librarian@cadsoft.de&lt;/author&gt;</description>
<packages>
<package name="1X06" urn="urn:adsk.eagle:footprint:22361/1" library_version="2">
<description>&lt;b&gt;PIN HEADER&lt;/b&gt;</description>
<wire x1="0.635" y1="1.27" x2="1.905" y2="1.27" width="0.1524" layer="21"/>
<wire x1="1.905" y1="1.27" x2="2.54" y2="0.635" width="0.1524" layer="21"/>
<wire x1="2.54" y1="0.635" x2="2.54" y2="-0.635" width="0.1524" layer="21"/>
<wire x1="2.54" y1="-0.635" x2="1.905" y2="-1.27" width="0.1524" layer="21"/>
<wire x1="2.54" y1="0.635" x2="3.175" y2="1.27" width="0.1524" layer="21"/>
<wire x1="3.175" y1="1.27" x2="4.445" y2="1.27" width="0.1524" layer="21"/>
<wire x1="4.445" y1="1.27" x2="5.08" y2="0.635" width="0.1524" layer="21"/>
<wire x1="5.08" y1="0.635" x2="5.08" y2="-0.635" width="0.1524" layer="21"/>
<wire x1="5.08" y1="-0.635" x2="4.445" y2="-1.27" width="0.1524" layer="21"/>
<wire x1="4.445" y1="-1.27" x2="3.175" y2="-1.27" width="0.1524" layer="21"/>
<wire x1="3.175" y1="-1.27" x2="2.54" y2="-0.635" width="0.1524" layer="21"/>
<wire x1="-2.54" y1="0.635" x2="-1.905" y2="1.27" width="0.1524" layer="21"/>
<wire x1="-1.905" y1="1.27" x2="-0.635" y2="1.27" width="0.1524" layer="21"/>
<wire x1="-0.635" y1="1.27" x2="0" y2="0.635" width="0.1524" layer="21"/>
<wire x1="0" y1="0.635" x2="0" y2="-0.635" width="0.1524" layer="21"/>
<wire x1="0" y1="-0.635" x2="-0.635" y2="-1.27" width="0.1524" layer="21"/>
<wire x1="-0.635" y1="-1.27" x2="-1.905" y2="-1.27" width="0.1524" layer="21"/>
<wire x1="-1.905" y1="-1.27" x2="-2.54" y2="-0.635" width="0.1524" layer="21"/>
<wire x1="0.635" y1="1.27" x2="0" y2="0.635" width="0.1524" layer="21"/>
<wire x1="0" y1="-0.635" x2="0.635" y2="-1.27" width="0.1524" layer="21"/>
<wire x1="1.905" y1="-1.27" x2="0.635" y2="-1.27" width="0.1524" layer="21"/>
<wire x1="-6.985" y1="1.27" x2="-5.715" y2="1.27" width="0.1524" layer="21"/>
<wire x1="-5.715" y1="1.27" x2="-5.08" y2="0.635" width="0.1524" layer="21"/>
<wire x1="-5.08" y1="0.635" x2="-5.08" y2="-0.635" width="0.1524" layer="21"/>
<wire x1="-5.08" y1="-0.635" x2="-5.715" y2="-1.27" width="0.1524" layer="21"/>
<wire x1="-5.08" y1="0.635" x2="-4.445" y2="1.27" width="0.1524" layer="21"/>
<wire x1="-4.445" y1="1.27" x2="-3.175" y2="1.27" width="0.1524" layer="21"/>
<wire x1="-3.175" y1="1.27" x2="-2.54" y2="0.635" width="0.1524" layer="21"/>
<wire x1="-2.54" y1="0.635" x2="-2.54" y2="-0.635" width="0.1524" layer="21"/>
<wire x1="-2.54" y1="-0.635" x2="-3.175" y2="-1.27" width="0.1524" layer="21"/>
<wire x1="-3.175" y1="-1.27" x2="-4.445" y2="-1.27" width="0.1524" layer="21"/>
<wire x1="-4.445" y1="-1.27" x2="-5.08" y2="-0.635" width="0.1524" layer="21"/>
<wire x1="-7.62" y1="0.635" x2="-7.62" y2="-0.635" width="0.1524" layer="21"/>
<wire x1="-6.985" y1="1.27" x2="-7.62" y2="0.635" width="0.1524" layer="21"/>
<wire x1="-7.62" y1="-0.635" x2="-6.985" y2="-1.27" width="0.1524" layer="21"/>
<wire x1="-5.715" y1="-1.27" x2="-6.985" y2="-1.27" width="0.1524" layer="21"/>
<wire x1="5.715" y1="1.27" x2="6.985" y2="1.27" width="0.1524" layer="21"/>
<wire x1="6.985" y1="1.27" x2="7.62" y2="0.635" width="0.1524" layer="21"/>
<wire x1="7.62" y1="0.635" x2="7.62" y2="-0.635" width="0.1524" layer="21"/>
<wire x1="7.62" y1="-0.635" x2="6.985" y2="-1.27" width="0.1524" layer="21"/>
<wire x1="5.715" y1="1.27" x2="5.08" y2="0.635" width="0.1524" layer="21"/>
<wire x1="5.08" y1="-0.635" x2="5.715" y2="-1.27" width="0.1524" layer="21"/>
<wire x1="6.985" y1="-1.27" x2="5.715" y2="-1.27" width="0.1524" layer="21"/>
<pad name="1" x="-6.35" y="0" drill="1.016" shape="long" rot="R90"/>
<pad name="2" x="-3.81" y="0" drill="1.016" shape="long" rot="R90"/>
<pad name="3" x="-1.27" y="0" drill="1.016" shape="long" rot="R90"/>
<pad name="4" x="1.27" y="0" drill="1.016" shape="long" rot="R90"/>
<pad name="5" x="3.81" y="0" drill="1.016" shape="long" rot="R90"/>
<pad name="6" x="6.35" y="0" drill="1.016" shape="long" rot="R90"/>
<text x="-7.6962" y="1.8288" size="1.27" layer="25" ratio="10">&gt;NAME</text>
<text x="-7.62" y="-3.175" size="1.27" layer="27">&gt;VALUE</text>
<rectangle x1="3.556" y1="-0.254" x2="4.064" y2="0.254" layer="51"/>
<rectangle x1="1.016" y1="-0.254" x2="1.524" y2="0.254" layer="51"/>
<rectangle x1="-1.524" y1="-0.254" x2="-1.016" y2="0.254" layer="51"/>
<rectangle x1="-4.064" y1="-0.254" x2="-3.556" y2="0.254" layer="51"/>
<rectangle x1="-6.604" y1="-0.254" x2="-6.096" y2="0.254" layer="51"/>
<rectangle x1="6.096" y1="-0.254" x2="6.604" y2="0.254" layer="51"/>
</package>
</packages>
<packages3d>
<package3d name="1X06" urn="urn:adsk.eagle:package:22472/2" type="model" library_version="2">
<description>PIN HEADER</description>
</package3d>
</packages3d>
</library>
<library name="rcl" urn="urn:adsk.eagle:library:334">
<description>&lt;b&gt;Resistors, Capacitors, Inductors&lt;/b&gt;&lt;p&gt;
Based on the previous libraries:
&lt;ul&gt;
&lt;li&gt;r.lbr
&lt;li&gt;cap.lbr 
&lt;li&gt;cap-fe.lbr
&lt;li&gt;captant.lbr
&lt;li&gt;polcap.lbr
&lt;li&gt;ipc-smd.lbr
&lt;/ul&gt;
All SMD packages are defined according to the IPC specifications and  CECC&lt;p&gt;
&lt;author&gt;Created by librarian@cadsoft.de&lt;/author&gt;&lt;p&gt;
&lt;p&gt;
for Electrolyt Capacitors see also :&lt;p&gt;
www.bccomponents.com &lt;p&gt;
www.panasonic.com&lt;p&gt;
www.kemet.com&lt;p&gt;
http://www.secc.co.jp/pdf/os_e/2004/e_os_all.pdf &lt;b&gt;(SANYO)&lt;/b&gt;
&lt;p&gt;
for trimmer refence see : &lt;u&gt;www.electrospec-inc.com/cross_references/trimpotcrossref.asp&lt;/u&gt;&lt;p&gt;

&lt;table border=0 cellspacing=0 cellpadding=0 width="100%" cellpaddding=0&gt;
&lt;tr valign="top"&gt;

&lt;! &lt;td width="10"&gt;&amp;nbsp;&lt;/td&gt;
&lt;td width="90%"&gt;

&lt;b&gt;&lt;font color="#0000FF" size="4"&gt;TRIM-POT CROSS REFERENCE&lt;/font&gt;&lt;/b&gt;
&lt;P&gt;
&lt;TABLE BORDER=0 CELLSPACING=1 CELLPADDING=2&gt;
  &lt;TR&gt;
    &lt;TD COLSPAN=8&gt;
      &lt;FONT SIZE=3 FACE=ARIAL&gt;&lt;B&gt;RECTANGULAR MULTI-TURN&lt;/B&gt;&lt;/FONT&gt;
    &lt;/TD&gt;
  &lt;/TR&gt;
  &lt;TR&gt;
    &lt;TD ALIGN=CENTER&gt;
      &lt;B&gt;
      &lt;FONT SIZE=3 FACE=ARIAL color="#FF0000"&gt;BOURNS&lt;/FONT&gt;
      &lt;/B&gt;
    &lt;/TD&gt;
    &lt;TD ALIGN=CENTER&gt;
      &lt;B&gt;
      &lt;FONT SIZE=3 FACE=ARIAL color="#FF0000"&gt;BI&amp;nbsp;TECH&lt;/FONT&gt;
      &lt;/B&gt;
    &lt;/TD&gt;
    &lt;TD ALIGN=CENTER&gt;
      &lt;B&gt;
      &lt;FONT SIZE=3 FACE=ARIAL color="#FF0000"&gt;DALE-VISHAY&lt;/FONT&gt;
      &lt;/B&gt;
    &lt;/TD&gt;
    &lt;TD ALIGN=CENTER&gt;
      &lt;B&gt;
      &lt;FONT SIZE=3 FACE=ARIAL color="#FF0000"&gt;PHILIPS/MEPCO&lt;/FONT&gt;
      &lt;/B&gt;
    &lt;/TD&gt;
    &lt;TD ALIGN=CENTER&gt;
      &lt;B&gt;
      &lt;FONT SIZE=3 FACE=ARIAL color="#FF0000"&gt;MURATA&lt;/FONT&gt;
      &lt;/B&gt;
    &lt;/TD&gt;
    &lt;TD ALIGN=CENTER&gt;
      &lt;B&gt;
      &lt;FONT SIZE=3 FACE=ARIAL color="#FF0000"&gt;PANASONIC&lt;/FONT&gt;
      &lt;/B&gt;
    &lt;/TD&gt;
    &lt;TD ALIGN=CENTER&gt;
      &lt;B&gt;
      &lt;FONT SIZE=3 FACE=ARIAL color="#FF0000"&gt;SPECTROL&lt;/FONT&gt;
      &lt;/B&gt;
    &lt;/TD&gt;
    &lt;TD ALIGN=CENTER&gt;
      &lt;B&gt;
      &lt;FONT SIZE=3 FACE=ARIAL color="#FF0000"&gt;MILSPEC&lt;/FONT&gt;
      &lt;/B&gt;
    &lt;/TD&gt;&lt;TD&gt;&amp;nbsp;&lt;/TD&gt;
  &lt;/TR&gt;
  &lt;TR&gt;
    &lt;TD BGCOLOR="#cccccc" ALIGN=CENTER&gt;&lt;FONT FACE=ARIAL SIZE=3 &gt;
      3005P&lt;BR&gt;
      3006P&lt;BR&gt;
      3006W&lt;BR&gt;
      3006Y&lt;BR&gt;
      3009P&lt;BR&gt;
      3009W&lt;BR&gt;
      3009Y&lt;BR&gt;
      3057J&lt;BR&gt;
      3057L&lt;BR&gt;
      3057P&lt;BR&gt;
      3057Y&lt;BR&gt;
      3059J&lt;BR&gt;
      3059L&lt;BR&gt;
      3059P&lt;BR&gt;
      3059Y&lt;BR&gt;&lt;/FONT&gt;
    &lt;/TD&gt;
    &lt;TD BGCOLOR="#cccccc" ALIGN=CENTER&gt;&lt;FONT FACE=ARIAL SIZE=3&gt;
      -&lt;BR&gt;
      89P&lt;BR&gt;
      89W&lt;BR&gt;
      89X&lt;BR&gt;
      89PH&lt;BR&gt;
      76P&lt;BR&gt;
      89XH&lt;BR&gt;
      78SLT&lt;BR&gt;
      78L&amp;nbsp;ALT&lt;BR&gt;
      56P&amp;nbsp;ALT&lt;BR&gt;
      78P&amp;nbsp;ALT&lt;BR&gt;
      T8S&lt;BR&gt;
      78L&lt;BR&gt;
      56P&lt;BR&gt;
      78P&lt;BR&gt;&lt;/FONT&gt;
    &lt;/TD&gt;
    &lt;TD BGCOLOR="#cccccc" ALIGN=CENTER&gt;&lt;FONT FACE=ARIAL SIZE=3&gt;
      -&lt;BR&gt;
      T18/784&lt;BR&gt;
      783&lt;BR&gt;
      781&lt;BR&gt;
      -&lt;BR&gt;
      -&lt;BR&gt;
      -&lt;BR&gt;
      2199&lt;BR&gt;
      1697/1897&lt;BR&gt;
      1680/1880&lt;BR&gt;
      2187&lt;BR&gt;
      -&lt;BR&gt;
      -&lt;BR&gt;
      -&lt;BR&gt;
      -&lt;BR&gt;&lt;/FONT&gt;
    &lt;/TD&gt;
    &lt;TD BGCOLOR="#cccccc" ALIGN=CENTER&gt;&lt;FONT FACE=ARIAL SIZE=3&gt;
      -&lt;BR&gt;
      8035EKP/CT20/RJ-20P&lt;BR&gt;
      -&lt;BR&gt;
      RJ-20X&lt;BR&gt;
      -&lt;BR&gt;
      -&lt;BR&gt;
      -&lt;BR&gt;
      1211L&lt;BR&gt;
      8012EKQ&amp;nbsp;ALT&lt;BR&gt;
      8012EKR&amp;nbsp;ALT&lt;BR&gt;
      1211P&lt;BR&gt;
      8012EKJ&lt;BR&gt;
      8012EKL&lt;BR&gt;
      8012EKQ&lt;BR&gt;
      8012EKR&lt;BR&gt;&lt;/FONT&gt;
    &lt;/TD&gt;
    &lt;TD BGCOLOR="#cccccc" ALIGN=CENTER&gt;&lt;FONT FACE=ARIAL SIZE=3&gt;
      -&lt;BR&gt;
      2101P&lt;BR&gt;
      2101W&lt;BR&gt;
      2101Y&lt;BR&gt;
      -&lt;BR&gt;
      -&lt;BR&gt;
      -&lt;BR&gt;
      -&lt;BR&gt;
      -&lt;BR&gt;
      -&lt;BR&gt;
      -&lt;BR&gt;
      -&lt;BR&gt;
      2102L&lt;BR&gt;
      2102S&lt;BR&gt;
      2102Y&lt;BR&gt;&lt;/FONT&gt;
    &lt;/TD&gt;
    &lt;TD BGCOLOR="#cccccc" ALIGN=CENTER&gt;&lt;FONT FACE=ARIAL SIZE=3&gt;
      -&lt;BR&gt;
      EVMCOG&lt;BR&gt;
      -&lt;BR&gt;
      -&lt;BR&gt;
      -&lt;BR&gt;
      -&lt;BR&gt;
      -&lt;BR&gt;
      -&lt;BR&gt;
      -&lt;BR&gt;
      -&lt;BR&gt;
      -&lt;BR&gt;
      -&lt;BR&gt;
      -&lt;BR&gt;
      -&lt;BR&gt;
      -&lt;BR&gt;&lt;/FONT&gt;
    &lt;/TD&gt;
    &lt;TD BGCOLOR="#cccccc" ALIGN=CENTER&gt;&lt;FONT FACE=ARIAL SIZE=3&gt;
      -&lt;BR&gt;
      43P&lt;BR&gt;
      43W&lt;BR&gt;
      43Y&lt;BR&gt;
      -&lt;BR&gt;
      -&lt;BR&gt;
      -&lt;BR&gt;
      -&lt;BR&gt;
      40L&lt;BR&gt;
      40P&lt;BR&gt;
      40Y&lt;BR&gt;
      70Y-T602&lt;BR&gt;
      70L&lt;BR&gt;
      70P&lt;BR&gt;
      70Y&lt;BR&gt;&lt;/FONT&gt;
    &lt;/TD&gt;
    &lt;TD BGCOLOR="#cccccc" ALIGN=CENTER&gt;&lt;FONT FACE=ARIAL SIZE=3&gt;
      -&lt;BR&gt;
      -&lt;BR&gt;
      -&lt;BR&gt;
      -&lt;BR&gt;
      -&lt;BR&gt;
      -&lt;BR&gt;
      -&lt;BR&gt;
      -&lt;BR&gt;
      RT/RTR12&lt;BR&gt;
      RT/RTR12&lt;BR&gt;
      RT/RTR12&lt;BR&gt;
      -&lt;BR&gt;
      RJ/RJR12&lt;BR&gt;
      RJ/RJR12&lt;BR&gt;
      RJ/RJR12&lt;BR&gt;&lt;/FONT&gt;
    &lt;/TD&gt;
  &lt;/TR&gt;
  &lt;TR&gt;
    &lt;TD COLSPAN=8&gt;&amp;nbsp;
    &lt;/TD&gt;
  &lt;/TR&gt;
  &lt;TR&gt;
    &lt;TD COLSPAN=8&gt;
      &lt;FONT SIZE=4 FACE=ARIAL&gt;&lt;B&gt;SQUARE MULTI-TURN&lt;/B&gt;&lt;/FONT&gt;
    &lt;/TD&gt;
  &lt;/TR&gt;
  &lt;TR&gt;
   &lt;TD ALIGN=CENTER&gt;
      &lt;FONT SIZE=3 FACE=ARIAL&gt;&lt;B&gt;BOURN&lt;/B&gt;&lt;/FONT&gt;
    &lt;/TD&gt;
    &lt;TD ALIGN=CENTER&gt;
      &lt;FONT SIZE=3 FACE=ARIAL&gt;&lt;B&gt;BI&amp;nbsp;TECH&lt;/B&gt;&lt;/FONT&gt;
    &lt;/TD&gt;
    &lt;TD ALIGN=CENTER&gt;
      &lt;FONT SIZE=3 FACE=ARIAL&gt;&lt;B&gt;DALE-VISHAY&lt;/B&gt;&lt;/FONT&gt;
    &lt;/TD&gt;
    &lt;TD ALIGN=CENTER&gt;
      &lt;FONT SIZE=3 FACE=ARIAL&gt;&lt;B&gt;PHILIPS/MEPCO&lt;/B&gt;&lt;/FONT&gt;
    &lt;/TD&gt;
    &lt;TD ALIGN=CENTER&gt;
      &lt;FONT SIZE=3 FACE=ARIAL&gt;&lt;B&gt;MURATA&lt;/B&gt;&lt;/FONT&gt;
    &lt;/TD&gt;
    &lt;TD ALIGN=CENTER&gt;
      &lt;FONT SIZE=3 FACE=ARIAL&gt;&lt;B&gt;PANASONIC&lt;/B&gt;&lt;/FONT&gt;
    &lt;/TD&gt;
    &lt;TD ALIGN=CENTER&gt;
      &lt;FONT SIZE=3 FACE=ARIAL&gt;&lt;B&gt;SPECTROL&lt;/B&gt;&lt;/FONT&gt;
    &lt;/TD&gt;
    &lt;TD ALIGN=CENTER&gt;
      &lt;FONT SIZE=3 FACE=ARIAL&gt;&lt;B&gt;MILSPEC&lt;/B&gt;&lt;/FONT&gt;
    &lt;/TD&gt;
  &lt;/TR&gt;
  &lt;TR&gt;
    &lt;TD BGCOLOR="#cccccc" ALIGN=CENTER&gt;&lt;FONT FACE=ARIAL SIZE=3&gt;
      3250L&lt;BR&gt;
      3250P&lt;BR&gt;
      3250W&lt;BR&gt;
      3250X&lt;BR&gt;
      3252P&lt;BR&gt;
      3252W&lt;BR&gt;
      3252X&lt;BR&gt;
      3260P&lt;BR&gt;
      3260W&lt;BR&gt;
      3260X&lt;BR&gt;
      3262P&lt;BR&gt;
      3262W&lt;BR&gt;
      3262X&lt;BR&gt;
      3266P&lt;BR&gt;
      3266W&lt;BR&gt;
      3266X&lt;BR&gt;
      3290H&lt;BR&gt;
      3290P&lt;BR&gt;
      3290W&lt;BR&gt;
      3292P&lt;BR&gt;
      3292W&lt;BR&gt;
      3292X&lt;BR&gt;
      3296P&lt;BR&gt;
      3296W&lt;BR&gt;
      3296X&lt;BR&gt;
      3296Y&lt;BR&gt;
      3296Z&lt;BR&gt;
      3299P&lt;BR&gt;
      3299W&lt;BR&gt;
      3299X&lt;BR&gt;
      3299Y&lt;BR&gt;
      3299Z&lt;BR&gt;&lt;/FONT&gt;
    &lt;/TD&gt;
    &lt;TD BGCOLOR="#cccccc" ALIGN=CENTER&gt;&lt;FONT FACE=ARIAL SIZE=3&gt;
      -&lt;BR&gt;
      66P&amp;nbsp;ALT&lt;BR&gt;
      66W&amp;nbsp;ALT&lt;BR&gt;
      66X&amp;nbsp;ALT&lt;BR&gt;
      66P&amp;nbsp;ALT&lt;BR&gt;
      66W&amp;nbsp;ALT&lt;BR&gt;
      66X&amp;nbsp;ALT&lt;BR&gt;
      -&lt;BR&gt;
      64W&amp;nbsp;ALT&lt;BR&gt;
      -&lt;BR&gt;
      64P&amp;nbsp;ALT&lt;BR&gt;
      64W&amp;nbsp;ALT&lt;BR&gt;
      64X&amp;nbsp;ALT&lt;BR&gt;
      64P&lt;BR&gt;
      64W&lt;BR&gt;
      64X&lt;BR&gt;
      66X&amp;nbsp;ALT&lt;BR&gt;
      66P&amp;nbsp;ALT&lt;BR&gt;
      66W&amp;nbsp;ALT&lt;BR&gt;
      66P&lt;BR&gt;
      66W&lt;BR&gt;
      66X&lt;BR&gt;
      67P&lt;BR&gt;
      67W&lt;BR&gt;
      67X&lt;BR&gt;
      67Y&lt;BR&gt;
      67Z&lt;BR&gt;
      68P&lt;BR&gt;
      68W&lt;BR&gt;
      68X&lt;BR&gt;
      67Y&amp;nbsp;ALT&lt;BR&gt;
      67Z&amp;nbsp;ALT&lt;BR&gt;&lt;/FONT&gt;
    &lt;/TD&gt;
    &lt;TD BGCOLOR="#cccccc" ALIGN=CENTER&gt;&lt;FONT FACE=ARIAL SIZE=3&gt;
      5050&lt;BR&gt;
      5091&lt;BR&gt;
      5080&lt;BR&gt;
      5087&lt;BR&gt;
      -&lt;BR&gt;
      -&lt;BR&gt;
      -&lt;BR&gt;
      -&lt;BR&gt;
      -&lt;BR&gt;
      -&lt;BR&gt;
      -&lt;BR&gt;
      T63YB&lt;BR&gt;
      T63XB&lt;BR&gt;
      -&lt;BR&gt;
      -&lt;BR&gt;
      -&lt;BR&gt;
      5887&lt;BR&gt;
      5891&lt;BR&gt;
      5880&lt;BR&gt;
      -&lt;BR&gt;
      -&lt;BR&gt;
      -&lt;BR&gt;
      T93Z&lt;BR&gt;
      T93YA&lt;BR&gt;
      T93XA&lt;BR&gt;
      T93YB&lt;BR&gt;
      T93XB&lt;BR&gt;
      -&lt;BR&gt;
      -&lt;BR&gt;
      -&lt;BR&gt;
      -&lt;BR&gt;
      -&lt;BR&gt;&lt;/FONT&gt;
    &lt;/TD&gt;
    &lt;TD BGCOLOR="#cccccc" ALIGN=CENTER&gt;&lt;FONT FACE=ARIAL SIZE=3&gt;
      -&lt;BR&gt;
      -&lt;BR&gt;
      -&lt;BR&gt;
      -&lt;BR&gt;
      -&lt;BR&gt;
      -&lt;BR&gt;
      -&lt;BR&gt;
      -&lt;BR&gt;
      -&lt;BR&gt;
      -&lt;BR&gt;
      8026EKP&lt;BR&gt;
      8026EKW&lt;BR&gt;
      8026EKM&lt;BR&gt;
      8026EKP&lt;BR&gt;
      8026EKB&lt;BR&gt;
      8026EKM&lt;BR&gt;
      1309X&lt;BR&gt;
      1309P&lt;BR&gt;
      1309W&lt;BR&gt;
      8024EKP&lt;BR&gt;
      8024EKW&lt;BR&gt;
      8024EKN&lt;BR&gt;
      RJ-9P/CT9P&lt;BR&gt;
      RJ-9W&lt;BR&gt;
      RJ-9X&lt;BR&gt;
      -&lt;BR&gt;
      -&lt;BR&gt;
      -&lt;BR&gt;
      -&lt;BR&gt;
      -&lt;BR&gt;
      -&lt;BR&gt;
      -&lt;BR&gt;&lt;/FONT&gt;
    &lt;/TD&gt;
    &lt;TD BGCOLOR="#cccccc" ALIGN=CENTER&gt;&lt;FONT FACE=ARIAL SIZE=3&gt;
      -&lt;BR&gt;
      -&lt;BR&gt;
      -&lt;BR&gt;
      -&lt;BR&gt;
      -&lt;BR&gt;
      -&lt;BR&gt;
      -&lt;BR&gt;
      -&lt;BR&gt;
      -&lt;BR&gt;
      -&lt;BR&gt;
      3103P&lt;BR&gt;
      3103Y&lt;BR&gt;
      3103Z&lt;BR&gt;
      3103P&lt;BR&gt;
      3103Y&lt;BR&gt;
      3103Z&lt;BR&gt;
      -&lt;BR&gt;
      -&lt;BR&gt;
      -&lt;BR&gt;
      -&lt;BR&gt;
      -&lt;BR&gt;
      -&lt;BR&gt;
      3105P/3106P&lt;BR&gt;
      3105W/3106W&lt;BR&gt;
      3105X/3106X&lt;BR&gt;
      3105Y/3106Y&lt;BR&gt;
      3105Z/3105Z&lt;BR&gt;
      3102P&lt;BR&gt;
      3102W&lt;BR&gt;
      3102X&lt;BR&gt;
      3102Y&lt;BR&gt;
      3102Z&lt;BR&gt;&lt;/FONT&gt;
    &lt;/TD&gt;
    &lt;TD BGCOLOR="#cccccc" ALIGN=CENTER&gt;&lt;FONT FACE=ARIAL SIZE=3&gt;
      -&lt;BR&gt;
      -&lt;BR&gt;
      -&lt;BR&gt;
      -&lt;BR&gt;
      -&lt;BR&gt;
      -&lt;BR&gt;
      -&lt;BR&gt;
      -&lt;BR&gt;
      -&lt;BR&gt;
      -&lt;BR&gt;
      -&lt;BR&gt;
      -&lt;BR&gt;
      -&lt;BR&gt;
      -&lt;BR&gt;
      -&lt;BR&gt;
      -&lt;BR&gt;
      -&lt;BR&gt;
      -&lt;BR&gt;
      -&lt;BR&gt;
      -&lt;BR&gt;
      -&lt;BR&gt;
      -&lt;BR&gt;
      EVMCBG&lt;BR&gt;
      EVMCCG&lt;BR&gt;
      -&lt;BR&gt;
      -&lt;BR&gt;
      -&lt;BR&gt;
      -&lt;BR&gt;
      -&lt;BR&gt;
      -&lt;BR&gt;
      -&lt;BR&gt;
      -&lt;BR&gt;&lt;/FONT&gt;
    &lt;/TD&gt;
    &lt;TD BGCOLOR="#cccccc" ALIGN=CENTER&gt;&lt;FONT FACE=ARIAL SIZE=3&gt;
      55-1-X&lt;BR&gt;
      55-4-X&lt;BR&gt;
      55-3-X&lt;BR&gt;
      55-2-X&lt;BR&gt;
      -&lt;BR&gt;
      -&lt;BR&gt;
      -&lt;BR&gt;
      -&lt;BR&gt;
      -&lt;BR&gt;
      -&lt;BR&gt;
      -&lt;BR&gt;
      -&lt;BR&gt;
      -&lt;BR&gt;
      -&lt;BR&gt;
      -&lt;BR&gt;
      -&lt;BR&gt;
      50-2-X&lt;BR&gt;
      50-4-X&lt;BR&gt;
      50-3-X&lt;BR&gt;
      -&lt;BR&gt;
      -&lt;BR&gt;
      -&lt;BR&gt;
      64P&lt;BR&gt;
      64W&lt;BR&gt;
      64X&lt;BR&gt;
      64Y&lt;BR&gt;
      64Z&lt;BR&gt;
      -&lt;BR&gt;
      -&lt;BR&gt;
      -&lt;BR&gt;
      -&lt;BR&gt;
      -&lt;BR&gt;&lt;/FONT&gt;
    &lt;/TD&gt;
    &lt;TD BGCOLOR="#cccccc" ALIGN=CENTER&gt;&lt;FONT FACE=ARIAL SIZE=3&gt;
      RT/RTR22&lt;BR&gt;
      RT/RTR22&lt;BR&gt;
      RT/RTR22&lt;BR&gt;
      RT/RTR22&lt;BR&gt;
      RJ/RJR22&lt;BR&gt;
      RJ/RJR22&lt;BR&gt;
      RJ/RJR22&lt;BR&gt;
      RT/RTR26&lt;BR&gt;
      RT/RTR26&lt;BR&gt;
      RT/RTR26&lt;BR&gt;
      RJ/RJR26&lt;BR&gt;
      RJ/RJR26&lt;BR&gt;
      RJ/RJR26&lt;BR&gt;
      RJ/RJR26&lt;BR&gt;
      RJ/RJR26&lt;BR&gt;
      RJ/RJR26&lt;BR&gt;
      RT/RTR24&lt;BR&gt;
      RT/RTR24&lt;BR&gt;
      RT/RTR24&lt;BR&gt;
      RJ/RJR24&lt;BR&gt;
      RJ/RJR24&lt;BR&gt;
      RJ/RJR24&lt;BR&gt;
      RJ/RJR24&lt;BR&gt;
      RJ/RJR24&lt;BR&gt;
      RJ/RJR24&lt;BR&gt;
      -&lt;BR&gt;
      -&lt;BR&gt;
      -&lt;BR&gt;
      -&lt;BR&gt;
      -&lt;BR&gt;
      -&lt;BR&gt;
      -&lt;BR&gt;&lt;/FONT&gt;
    &lt;/TD&gt;
  &lt;/TR&gt;
  &lt;TR&gt;
    &lt;TD COLSPAN=8&gt;&amp;nbsp;
    &lt;/TD&gt;
  &lt;/TR&gt;
  &lt;TR&gt;
    &lt;TD COLSPAN=8&gt;
      &lt;FONT SIZE=4 FACE=ARIAL&gt;&lt;B&gt;SINGLE TURN&lt;/B&gt;&lt;/FONT&gt;
    &lt;/TD&gt;
  &lt;/TR&gt;
  &lt;TR&gt;
    &lt;TD ALIGN=CENTER&gt;
      &lt;FONT SIZE=3 FACE=ARIAL&gt;&lt;B&gt;BOURN&lt;/B&gt;&lt;/FONT&gt;
    &lt;/TD&gt;
    &lt;TD ALIGN=CENTER&gt;
      &lt;FONT SIZE=3 FACE=ARIAL&gt;&lt;B&gt;BI&amp;nbsp;TECH&lt;/B&gt;&lt;/FONT&gt;
    &lt;/TD&gt;
    &lt;TD ALIGN=CENTER&gt;
      &lt;FONT SIZE=3 FACE=ARIAL&gt;&lt;B&gt;DALE-VISHAY&lt;/B&gt;&lt;/FONT&gt;
    &lt;/TD&gt;
    &lt;TD ALIGN=CENTER&gt;
      &lt;FONT SIZE=3 FACE=ARIAL&gt;&lt;B&gt;PHILIPS/MEPCO&lt;/B&gt;&lt;/FONT&gt;
    &lt;/TD&gt;
    &lt;TD ALIGN=CENTER&gt;
      &lt;FONT SIZE=3 FACE=ARIAL&gt;&lt;B&gt;MURATA&lt;/B&gt;&lt;/FONT&gt;
    &lt;/TD&gt;
    &lt;TD ALIGN=CENTER&gt;
      &lt;FONT SIZE=3 FACE=ARIAL&gt;&lt;B&gt;PANASONIC&lt;/B&gt;&lt;/FONT&gt;
    &lt;/TD&gt;
    &lt;TD ALIGN=CENTER&gt;
      &lt;FONT SIZE=3 FACE=ARIAL&gt;&lt;B&gt;SPECTROL&lt;/B&gt;&lt;/FONT&gt;
    &lt;/TD&gt;
    &lt;TD ALIGN=CENTER&gt;
      &lt;FONT SIZE=3 FACE=ARIAL&gt;&lt;B&gt;MILSPEC&lt;/B&gt;&lt;/FONT&gt;
    &lt;/TD&gt;
  &lt;/TR&gt;
  &lt;TR&gt;
    &lt;TD BGCOLOR="#cccccc" ALIGN=CENTER&gt;&lt;FONT FACE=ARIAL SIZE=3&gt;
      3323P&lt;BR&gt;
      3323S&lt;BR&gt;
      3323W&lt;BR&gt;
      3329H&lt;BR&gt;
      3329P&lt;BR&gt;
      3329W&lt;BR&gt;
      3339H&lt;BR&gt;
      3339P&lt;BR&gt;
      3339W&lt;BR&gt;
      3352E&lt;BR&gt;
      3352H&lt;BR&gt;
      3352K&lt;BR&gt;
      3352P&lt;BR&gt;
      3352T&lt;BR&gt;
      3352V&lt;BR&gt;
      3352W&lt;BR&gt;
      3362H&lt;BR&gt;
      3362M&lt;BR&gt;
      3362P&lt;BR&gt;
      3362R&lt;BR&gt;
      3362S&lt;BR&gt;
      3362U&lt;BR&gt;
      3362W&lt;BR&gt;
      3362X&lt;BR&gt;
      3386B&lt;BR&gt;
      3386C&lt;BR&gt;
      3386F&lt;BR&gt;
      3386H&lt;BR&gt;
      3386K&lt;BR&gt;
      3386M&lt;BR&gt;
      3386P&lt;BR&gt;
      3386S&lt;BR&gt;
      3386W&lt;BR&gt;
      3386X&lt;BR&gt;&lt;/FONT&gt;
    &lt;/TD&gt;
    &lt;TD BGCOLOR="#cccccc" ALIGN=CENTER&gt;&lt;FONT FACE=ARIAL SIZE=3&gt;
      25P&lt;BR&gt;
      25S&lt;BR&gt;
      25RX&lt;BR&gt;
      82P&lt;BR&gt;
      82M&lt;BR&gt;
      82PA&lt;BR&gt;
      -&lt;BR&gt;
      -&lt;BR&gt;
      -&lt;BR&gt;
      91E&lt;BR&gt;
      91X&lt;BR&gt;
      91T&lt;BR&gt;
      91B&lt;BR&gt;
      91A&lt;BR&gt;
      91V&lt;BR&gt;
      91W&lt;BR&gt;
      25W&lt;BR&gt;
      25V&lt;BR&gt;
      25P&lt;BR&gt;
      -&lt;BR&gt;
      25S&lt;BR&gt;
      25U&lt;BR&gt;
      25RX&lt;BR&gt;
      25X&lt;BR&gt;
      72XW&lt;BR&gt;
      72XL&lt;BR&gt;
      72PM&lt;BR&gt;
      72RX&lt;BR&gt;
      -&lt;BR&gt;
      72PX&lt;BR&gt;
      72P&lt;BR&gt;
      72RXW&lt;BR&gt;
      72RXL&lt;BR&gt;
      72X&lt;BR&gt;&lt;/FONT&gt;
    &lt;/TD&gt;
    &lt;TD BGCOLOR="#cccccc" ALIGN=CENTER&gt;&lt;FONT FACE=ARIAL SIZE=3&gt;
      -&lt;BR&gt;
      -&lt;BR&gt;
      -&lt;BR&gt;
      T7YB&lt;BR&gt;
      T7YA&lt;BR&gt;
      -&lt;BR&gt;
      -&lt;BR&gt;
      -&lt;BR&gt;
      -&lt;BR&gt;
      -&lt;BR&gt;
      -&lt;BR&gt;
      -&lt;BR&gt;
      -&lt;BR&gt;
      -&lt;BR&gt;
      -&lt;BR&gt;
      -&lt;BR&gt;
      -&lt;BR&gt;
      TXD&lt;BR&gt;
      TYA&lt;BR&gt;
      TYP&lt;BR&gt;
      -&lt;BR&gt;
      TYD&lt;BR&gt;
      TX&lt;BR&gt;
      -&lt;BR&gt;
      150SX&lt;BR&gt;
      100SX&lt;BR&gt;
      102T&lt;BR&gt;
      101S&lt;BR&gt;
      190T&lt;BR&gt;
      150TX&lt;BR&gt;
      101&lt;BR&gt;
      -&lt;BR&gt;
      -&lt;BR&gt;
      101SX&lt;BR&gt;&lt;/FONT&gt;
    &lt;/TD&gt;
    &lt;TD BGCOLOR="#cccccc" ALIGN=CENTER&gt;&lt;FONT FACE=ARIAL SIZE=3&gt;
      ET6P&lt;BR&gt;
      ET6S&lt;BR&gt;
      ET6X&lt;BR&gt;
      RJ-6W/8014EMW&lt;BR&gt;
      RJ-6P/8014EMP&lt;BR&gt;
      RJ-6X/8014EMX&lt;BR&gt;
      TM7W&lt;BR&gt;
      TM7P&lt;BR&gt;
      TM7X&lt;BR&gt;
      -&lt;BR&gt;
      8017SMS&lt;BR&gt;
      -&lt;BR&gt;
      8017SMB&lt;BR&gt;
      8017SMA&lt;BR&gt;
      -&lt;BR&gt;
      -&lt;BR&gt;
      CT-6W&lt;BR&gt;
      CT-6H&lt;BR&gt;
      CT-6P&lt;BR&gt;
      CT-6R&lt;BR&gt;
      -&lt;BR&gt;
      CT-6V&lt;BR&gt;
      CT-6X&lt;BR&gt;
      -&lt;BR&gt;
      -&lt;BR&gt;
      8038EKV&lt;BR&gt;
      -&lt;BR&gt;
      8038EKX&lt;BR&gt;
      -&lt;BR&gt;
      -&lt;BR&gt;
      8038EKP&lt;BR&gt;
      8038EKZ&lt;BR&gt;
      8038EKW&lt;BR&gt;
      -&lt;BR&gt;&lt;/FONT&gt;
    &lt;/TD&gt;
    &lt;TD BGCOLOR="#cccccc" ALIGN=CENTER&gt;&lt;FONT FACE=ARIAL SIZE=3&gt;
      -&lt;BR&gt;
      -&lt;BR&gt;
      -&lt;BR&gt;
      3321H&lt;BR&gt;
      3321P&lt;BR&gt;
      3321N&lt;BR&gt;
      1102H&lt;BR&gt;
      1102P&lt;BR&gt;
      1102T&lt;BR&gt;
      RVA0911V304A&lt;BR&gt;
      -&lt;BR&gt;
      RVA0911H413A&lt;BR&gt;
      RVG0707V100A&lt;BR&gt;
      RVA0607V(H)306A&lt;BR&gt;
      RVA1214H213A&lt;BR&gt;
      -&lt;BR&gt;
      -&lt;BR&gt;
      -&lt;BR&gt;
      -&lt;BR&gt;
      -&lt;BR&gt;
      -&lt;BR&gt;
      -&lt;BR&gt;
      -&lt;BR&gt;
      -&lt;BR&gt;
      3104B&lt;BR&gt;
      3104C&lt;BR&gt;
      3104F&lt;BR&gt;
      3104H&lt;BR&gt;
      -&lt;BR&gt;
      3104M&lt;BR&gt;
      3104P&lt;BR&gt;
      3104S&lt;BR&gt;
      3104W&lt;BR&gt;
      3104X&lt;BR&gt;&lt;/FONT&gt;
    &lt;/TD&gt;
    &lt;TD BGCOLOR="#cccccc" ALIGN=CENTER&gt;&lt;FONT FACE=ARIAL SIZE=3&gt;
      EVMQ0G&lt;BR&gt;
      EVMQIG&lt;BR&gt;
      EVMQ3G&lt;BR&gt;
      EVMS0G&lt;BR&gt;
      EVMQ0G&lt;BR&gt;
      EVMG0G&lt;BR&gt;
      -&lt;BR&gt;
      -&lt;BR&gt;
      -&lt;BR&gt;
      EVMK4GA00B&lt;BR&gt;
      EVM30GA00B&lt;BR&gt;
      EVMK0GA00B&lt;BR&gt;
      EVM38GA00B&lt;BR&gt;
      EVMB6&lt;BR&gt;
      EVLQ0&lt;BR&gt;
      -&lt;BR&gt;
      EVMMSG&lt;BR&gt;
      EVMMBG&lt;BR&gt;
      EVMMAG&lt;BR&gt;
      -&lt;BR&gt;
      -&lt;BR&gt;
      EVMMCS&lt;BR&gt;
      -&lt;BR&gt;
      -&lt;BR&gt;
      -&lt;BR&gt;
      -&lt;BR&gt;
      -&lt;BR&gt;
      EVMM1&lt;BR&gt;
      -&lt;BR&gt;
      -&lt;BR&gt;
      EVMM0&lt;BR&gt;
      -&lt;BR&gt;
      -&lt;BR&gt;
      EVMM3&lt;BR&gt;&lt;/FONT&gt;
    &lt;/TD&gt;
    &lt;TD BGCOLOR="#cccccc" ALIGN=CENTER&gt;&lt;FONT FACE=ARIAL SIZE=3&gt;
      -&lt;BR&gt;
      -&lt;BR&gt;
      -&lt;BR&gt;
      62-3-1&lt;BR&gt;
      62-1-2&lt;BR&gt;
      -&lt;BR&gt;
      -&lt;BR&gt;
      -&lt;BR&gt;
      -&lt;BR&gt;
      -&lt;BR&gt;
      -&lt;BR&gt;
      -&lt;BR&gt;
      -&lt;BR&gt;
      -&lt;BR&gt;
      -&lt;BR&gt;
      -&lt;BR&gt;
      67R&lt;BR&gt;
      -&lt;BR&gt;
      67P&lt;BR&gt;
      -&lt;BR&gt;
      -&lt;BR&gt;
      -&lt;BR&gt;
      -&lt;BR&gt;
      67X&lt;BR&gt;
      63V&lt;BR&gt;
      63S&lt;BR&gt;
      63M&lt;BR&gt;
      -&lt;BR&gt;
      -&lt;BR&gt;
      63H&lt;BR&gt;
      63P&lt;BR&gt;
      -&lt;BR&gt;
      -&lt;BR&gt;
      63X&lt;BR&gt;&lt;/FONT&gt;
    &lt;/TD&gt;
    &lt;TD BGCOLOR="#cccccc" ALIGN=CENTER&gt;&lt;FONT FACE=ARIAL SIZE=3&gt;
      -&lt;BR&gt;
      -&lt;BR&gt;
      -&lt;BR&gt;
      RJ/RJR50&lt;BR&gt;
      RJ/RJR50&lt;BR&gt;
      RJ/RJR50&lt;BR&gt;
      -&lt;BR&gt;
      -&lt;BR&gt;
      -&lt;BR&gt;
      -&lt;BR&gt;
      -&lt;BR&gt;
      -&lt;BR&gt;
      -&lt;BR&gt;
      -&lt;BR&gt;
      -&lt;BR&gt;
      -&lt;BR&gt;
      -&lt;BR&gt;
      -&lt;BR&gt;
      -&lt;BR&gt;
      -&lt;BR&gt;
      -&lt;BR&gt;
      -&lt;BR&gt;
      -&lt;BR&gt;
      -&lt;BR&gt;
      -&lt;BR&gt;
      -&lt;BR&gt;
      -&lt;BR&gt;
      -&lt;BR&gt;
      -&lt;BR&gt;
      -&lt;BR&gt;
      -&lt;BR&gt;
      -&lt;BR&gt;
      -&lt;BR&gt;
      -&lt;BR&gt;&lt;/FONT&gt;
    &lt;/TD&gt;
  &lt;/TR&gt;
&lt;/TABLE&gt;
&lt;P&gt;&amp;nbsp;&lt;P&gt;
&lt;TABLE BORDER=0 CELLSPACING=1 CELLPADDING=3&gt;
  &lt;TR&gt;
    &lt;TD COLSPAN=7&gt;
      &lt;FONT color="#0000FF" SIZE=4 FACE=ARIAL&gt;&lt;B&gt;SMD TRIM-POT CROSS REFERENCE&lt;/B&gt;&lt;/FONT&gt;
      &lt;P&gt;
      &lt;FONT SIZE=4 FACE=ARIAL&gt;&lt;B&gt;MULTI-TURN&lt;/B&gt;&lt;/FONT&gt;
    &lt;/TD&gt;
  &lt;/TR&gt;
  &lt;TR&gt;
    &lt;TD&gt;
      &lt;FONT SIZE=3 FACE=ARIAL&gt;&lt;B&gt;BOURNS&lt;/B&gt;&lt;/FONT&gt;
    &lt;/TD&gt;
    &lt;TD&gt;
      &lt;FONT SIZE=3 FACE=ARIAL&gt;&lt;B&gt;BI&amp;nbsp;TECH&lt;/B&gt;&lt;/FONT&gt;
    &lt;/TD&gt;
    &lt;TD&gt;
      &lt;FONT SIZE=3 FACE=ARIAL&gt;&lt;B&gt;DALE-VISHAY&lt;/B&gt;&lt;/FONT&gt;
    &lt;/TD&gt;
    &lt;TD&gt;
      &lt;FONT SIZE=3 FACE=ARIAL&gt;&lt;B&gt;PHILIPS/MEPCO&lt;/B&gt;&lt;/FONT&gt;
    &lt;/TD&gt;
    &lt;TD&gt;
      &lt;FONT SIZE=3 FACE=ARIAL&gt;&lt;B&gt;PANASONIC&lt;/B&gt;&lt;/FONT&gt;
    &lt;/TD&gt;
    &lt;TD&gt;
      &lt;FONT SIZE=3 FACE=ARIAL&gt;&lt;B&gt;TOCOS&lt;/B&gt;&lt;/FONT&gt;
    &lt;/TD&gt;
    &lt;TD&gt;
      &lt;FONT SIZE=3 FACE=ARIAL&gt;&lt;B&gt;AUX/KYOCERA&lt;/B&gt;&lt;/FONT&gt;
    &lt;/TD&gt;
  &lt;/TR&gt;
  &lt;TR&gt;
    &lt;TD BGCOLOR="#cccccc" ALIGN=CENTER&gt;&lt;FONT FACE=ARIAL SIZE=3&gt;
      3224G&lt;BR&gt;
      3224J&lt;BR&gt;
      3224W&lt;BR&gt;
      3269P&lt;BR&gt;
      3269W&lt;BR&gt;
      3269X&lt;BR&gt;&lt;/FONT&gt;
    &lt;/TD&gt;
    &lt;TD BGCOLOR="#cccccc" ALIGN=CENTER&gt;&lt;FONT FACE=ARIAL SIZE=3&gt;
      44G&lt;BR&gt;
      44J&lt;BR&gt;
      44W&lt;BR&gt;
      84P&lt;BR&gt;
      84W&lt;BR&gt;
      84X&lt;BR&gt;&lt;/FONT&gt;
    &lt;/TD&gt;
    &lt;TD BGCOLOR="#cccccc" ALIGN=CENTER&gt;&lt;FONT FACE=ARIAL SIZE=3&gt;
      -&lt;BR&gt;
      -&lt;BR&gt;
      -&lt;BR&gt;
      ST63Z&lt;BR&gt;
      ST63Y&lt;BR&gt;
      -&lt;BR&gt;&lt;/FONT&gt;
    &lt;/TD&gt;
    &lt;TD BGCOLOR="#cccccc" ALIGN=CENTER&gt;&lt;FONT FACE=ARIAL SIZE=3&gt;
      -&lt;BR&gt;
      -&lt;BR&gt;
      -&lt;BR&gt;
      ST5P&lt;BR&gt;
      ST5W&lt;BR&gt;
      ST5X&lt;BR&gt;&lt;/FONT&gt;
    &lt;/TD&gt;
    &lt;TD BGCOLOR="#cccccc" ALIGN=CENTER&gt;&lt;FONT FACE=ARIAL SIZE=3&gt;
      -&lt;BR&gt;
      -&lt;BR&gt;
      -&lt;BR&gt;
      -&lt;BR&gt;
      -&lt;BR&gt;
      -&lt;BR&gt;&lt;/FONT&gt;
    &lt;/TD&gt;
    &lt;TD BGCOLOR="#cccccc" ALIGN=CENTER&gt;&lt;FONT FACE=ARIAL SIZE=3&gt;
      -&lt;BR&gt;
      -&lt;BR&gt;
      -&lt;BR&gt;
      -&lt;BR&gt;
      -&lt;BR&gt;
      -&lt;BR&gt;&lt;/FONT&gt;
    &lt;/TD&gt;
    &lt;TD BGCOLOR="#cccccc" ALIGN=CENTER&gt;&lt;FONT FACE=ARIAL SIZE=3&gt;
      -&lt;BR&gt;
      -&lt;BR&gt;
      -&lt;BR&gt;
      -&lt;BR&gt;
      -&lt;BR&gt;
      -&lt;BR&gt;&lt;/FONT&gt;
    &lt;/TD&gt;
  &lt;/TR&gt;
  &lt;TR&gt;
    &lt;TD COLSPAN=7&gt;&amp;nbsp;
    &lt;/TD&gt;
  &lt;/TR&gt;
  &lt;TR&gt;
    &lt;TD COLSPAN=7&gt;
      &lt;FONT SIZE=4 FACE=ARIAL&gt;&lt;B&gt;SINGLE TURN&lt;/B&gt;&lt;/FONT&gt;
    &lt;/TD&gt;
  &lt;/TR&gt;
  &lt;TR&gt;
    &lt;TD&gt;
      &lt;FONT SIZE=3 FACE=ARIAL&gt;&lt;B&gt;BOURNS&lt;/B&gt;&lt;/FONT&gt;
    &lt;/TD&gt;
    &lt;TD&gt;
      &lt;FONT SIZE=3 FACE=ARIAL&gt;&lt;B&gt;BI&amp;nbsp;TECH&lt;/B&gt;&lt;/FONT&gt;
    &lt;/TD&gt;
    &lt;TD&gt;
      &lt;FONT SIZE=3 FACE=ARIAL&gt;&lt;B&gt;DALE-VISHAY&lt;/B&gt;&lt;/FONT&gt;
    &lt;/TD&gt;
    &lt;TD&gt;
      &lt;FONT SIZE=3 FACE=ARIAL&gt;&lt;B&gt;PHILIPS/MEPCO&lt;/B&gt;&lt;/FONT&gt;
    &lt;/TD&gt;
    &lt;TD&gt;
      &lt;FONT SIZE=3 FACE=ARIAL&gt;&lt;B&gt;PANASONIC&lt;/B&gt;&lt;/FONT&gt;
    &lt;/TD&gt;
    &lt;TD&gt;
      &lt;FONT SIZE=3 FACE=ARIAL&gt;&lt;B&gt;TOCOS&lt;/B&gt;&lt;/FONT&gt;
    &lt;/TD&gt;
    &lt;TD&gt;
      &lt;FONT SIZE=3 FACE=ARIAL&gt;&lt;B&gt;AUX/KYOCERA&lt;/B&gt;&lt;/FONT&gt;
    &lt;/TD&gt;
  &lt;/TR&gt;
  &lt;TR&gt;
    &lt;TD BGCOLOR="#cccccc" ALIGN=CENTER&gt;&lt;FONT FACE=ARIAL SIZE=3&gt;
      3314G&lt;BR&gt;
      3314J&lt;BR&gt;
      3364A/B&lt;BR&gt;
      3364C/D&lt;BR&gt;
      3364W/X&lt;BR&gt;
      3313G&lt;BR&gt;
      3313J&lt;BR&gt;&lt;/FONT&gt;
    &lt;/TD&gt;
    &lt;TD BGCOLOR="#cccccc" ALIGN=CENTER&gt;&lt;FONT FACE=ARIAL SIZE=3&gt;
      23B&lt;BR&gt;
      23A&lt;BR&gt;
      21X&lt;BR&gt;
      21W&lt;BR&gt;
      -&lt;BR&gt;
      22B&lt;BR&gt;
      22A&lt;BR&gt;&lt;/FONT&gt;
    &lt;/TD&gt;
    &lt;TD BGCOLOR="#cccccc" ALIGN=CENTER&gt;&lt;FONT FACE=ARIAL SIZE=3&gt;
      ST5YL/ST53YL&lt;BR&gt;
      ST5YJ/5T53YJ&lt;BR&gt;
      ST-23A&lt;BR&gt;
      ST-22B&lt;BR&gt;
      ST-22&lt;BR&gt;
      -&lt;BR&gt;
      -&lt;BR&gt;&lt;/FONT&gt;
    &lt;/TD&gt;
    &lt;TD BGCOLOR="#cccccc" ALIGN=CENTER&gt;&lt;FONT FACE=ARIAL SIZE=3&gt;
      ST-4B&lt;BR&gt;
      ST-4A&lt;BR&gt;
      -&lt;BR&gt;
      -&lt;BR&gt;
      -&lt;BR&gt;
      ST-3B&lt;BR&gt;
      ST-3A&lt;BR&gt;&lt;/FONT&gt;
    &lt;/TD&gt;
    &lt;TD BGCOLOR="#cccccc" ALIGN=CENTER&gt;&lt;FONT FACE=ARIAL SIZE=3&gt;
      -&lt;BR&gt;
      EVM-6YS&lt;BR&gt;
      EVM-1E&lt;BR&gt;
      EVM-1G&lt;BR&gt;
      EVM-1D&lt;BR&gt;
      -&lt;BR&gt;
      -&lt;BR&gt;&lt;/FONT&gt;
    &lt;/TD&gt;
    &lt;TD BGCOLOR="#cccccc" ALIGN=CENTER&gt;&lt;FONT FACE=ARIAL SIZE=3&gt;
      G4B&lt;BR&gt;
      G4A&lt;BR&gt;
      TR04-3S1&lt;BR&gt;
      TRG04-2S1&lt;BR&gt;
      -&lt;BR&gt;
      -&lt;BR&gt;
      -&lt;BR&gt;&lt;/FONT&gt;
    &lt;/TD&gt;
    &lt;TD BGCOLOR="#cccccc" ALIGN=CENTER&gt;&lt;FONT FACE=ARIAL SIZE=3&gt;
      -&lt;BR&gt;
      -&lt;BR&gt;
      DVR-43A&lt;BR&gt;
      CVR-42C&lt;BR&gt;
      CVR-42A/C&lt;BR&gt;
      -&lt;BR&gt;
      -&lt;BR&gt;&lt;/FONT&gt;
    &lt;/TD&gt;
  &lt;/TR&gt;
&lt;/TABLE&gt;
&lt;P&gt;
&lt;FONT SIZE=4 FACE=ARIAL&gt;&lt;B&gt;ALT =&amp;nbsp;ALTERNATE&lt;/B&gt;&lt;/FONT&gt;
&lt;P&gt;

&amp;nbsp;
&lt;P&gt;
&lt;/td&gt;
&lt;/tr&gt;
&lt;/table&gt;</description>
<packages>
<package name="R1206" urn="urn:adsk.eagle:footprint:23047/1" library_version="2">
<description>&lt;b&gt;RESISTOR&lt;/b&gt;</description>
<wire x1="0.9525" y1="-0.8128" x2="-0.9652" y2="-0.8128" width="0.1524" layer="51"/>
<wire x1="0.9525" y1="0.8128" x2="-0.9652" y2="0.8128" width="0.1524" layer="51"/>
<wire x1="-2.473" y1="0.983" x2="2.473" y2="0.983" width="0.0508" layer="39"/>
<wire x1="2.473" y1="0.983" x2="2.473" y2="-0.983" width="0.0508" layer="39"/>
<wire x1="2.473" y1="-0.983" x2="-2.473" y2="-0.983" width="0.0508" layer="39"/>
<wire x1="-2.473" y1="-0.983" x2="-2.473" y2="0.983" width="0.0508" layer="39"/>
<smd name="2" x="1.422" y="0" dx="1.6" dy="1.803" layer="1"/>
<smd name="1" x="-1.422" y="0" dx="1.6" dy="1.803" layer="1"/>
<text x="-1.27" y="1.27" size="1.27" layer="25">&gt;NAME</text>
<text x="-1.27" y="-2.54" size="1.27" layer="27">&gt;VALUE</text>
<rectangle x1="-1.6891" y1="-0.8763" x2="-0.9525" y2="0.8763" layer="51"/>
<rectangle x1="0.9525" y1="-0.8763" x2="1.6891" y2="0.8763" layer="51"/>
<rectangle x1="-0.3" y1="-0.7" x2="0.3" y2="0.7" layer="35"/>
</package>
</packages>
<packages3d>
<package3d name="R1206" urn="urn:adsk.eagle:package:23540/2" type="model" library_version="2">
<description>RESISTOR</description>
</package3d>
</packages3d>
</library>
<library name="SparkFun-Sensors" urn="urn:adsk.eagle:library:534">
<description>&lt;h3&gt;SparkFun Sensors&lt;/h3&gt;
This library contains sensors- accelerometers, gyros, compasses, magnetometers, light sensors, imagers, temp sensors, etc.
&lt;br&gt;
&lt;br&gt;
We've spent an enormous amount of time creating and checking these footprints and parts, but it is &lt;b&gt; the end user's responsibility&lt;/b&gt; to ensure correctness and suitablity for a given componet or application. 
&lt;br&gt;
&lt;br&gt;If you enjoy using this library, please buy one of our products at &lt;a href=" www.sparkfun.com"&gt;SparkFun.com&lt;/a&gt;.
&lt;br&gt;
&lt;br&gt;
&lt;b&gt;Licensing:&lt;/b&gt; Creative Commons ShareAlike 4.0 International - https://creativecommons.org/licenses/by-sa/4.0/ 
&lt;br&gt;
&lt;br&gt;
You are welcome to use this library for commercial purposes. For attribution, we ask that when you begin to sell your device using our footprint, you email us with a link to the product being sold. We want bragging rights that we helped (in a very small part) to create your 8th world wonder. We would like the opportunity to feature your device on our homepage.</description>
<packages>
<package name="QRE1113-W" urn="urn:adsk.eagle:footprint:39828/1" library_version="1">
<description>&lt;h3&gt;QRE1113, QRE1113GR SMD Reflective Object Sensor (Wide Pin footprint)&lt;/h3&gt;
&lt;p&gt;&lt;a href="https://www.sparkfun.com/datasheets/Components/SMD/QRE1113.GR.pdf"&gt;Datasheet&lt;/a&gt;&lt;/p&gt;
&lt;p&gt;Specifications:
&lt;ul&gt;
&lt;li&gt;Pin Count: 4&lt;/li&gt;
&lt;li&gt;Dimensions: 3.2 x 2.5 x 1.5 mm&lt;/li&gt;
&lt;li&gt;Pitch: 1.8 mm&lt;/li&gt;
&lt;/ul&gt;
&lt;p&gt;Devices Using:&lt;/p&gt;
&lt;ul&gt;
&lt;li&gt;QRE1113&lt;/li&gt;
&lt;/ul&gt;</description>
<smd name="1" x="-1.927" y="-0.9" dx="1.778" dy="0.762" layer="1"/>
<smd name="2" x="1.927" y="-0.9" dx="1.778" dy="0.762" layer="1"/>
<smd name="3" x="1.927" y="0.9" dx="1.778" dy="0.762" layer="1"/>
<smd name="4" x="-1.927" y="0.9" dx="1.778" dy="0.762" layer="1"/>
<text x="0" y="1.905" size="0.6096" layer="25" font="vector" ratio="20" align="bottom-center">&gt;NAME</text>
<text x="0" y="-1.905" size="0.6096" layer="27" font="vector" ratio="20" align="top-center">&gt;VALUE</text>
<text x="0" y="1.905" size="0.6096" layer="25" font="vector" ratio="20" align="bottom-center">&gt;NAME</text>
<wire x1="1.35" y1="1.7" x2="-1.35" y2="1.7" width="0.127" layer="51"/>
<wire x1="-1.35" y1="1.7" x2="-1.35" y2="-1.7" width="0.127" layer="51"/>
<wire x1="-1.35" y1="-1.7" x2="1.35" y2="-1.7" width="0.127" layer="51"/>
<wire x1="1.35" y1="-1.7" x2="1.35" y2="1.7" width="0.127" layer="51"/>
<wire x1="-1.427" y1="1.5" x2="-1.427" y2="1.827" width="0.2032" layer="21"/>
<wire x1="-1.427" y1="1.827" x2="1.4635" y2="1.827" width="0.2032" layer="21"/>
<wire x1="1.4635" y1="1.827" x2="1.4635" y2="1.527" width="0.2032" layer="21"/>
<wire x1="-1.5605" y1="-1.4875" x2="-1.227" y2="-1.827" width="0.2032" layer="21"/>
<wire x1="-1.227" y1="-1.827" x2="1.4635" y2="-1.827" width="0.2032" layer="21"/>
<wire x1="1.4635" y1="-1.827" x2="1.4635" y2="-1.5" width="0.2032" layer="21"/>
<circle x="-1.8415" y="-1.7145" radius="0.254" width="0" layer="21"/>
</package>
</packages>
<packages3d>
<package3d name="QRE1113-W" urn="urn:adsk.eagle:package:39944/1" type="box" library_version="1">
<description>QRE1113, QRE1113GR SMD Reflective Object Sensor (Wide Pin footprint)
Datasheet
Specifications:

Pin Count: 4
Dimensions: 3.2 x 2.5 x 1.5 mm
Pitch: 1.8 mm

Devices Using:

QRE1113
</description>
</package3d>
</packages3d>
</library>
</libraries>
<attributes>
</attributes>
<variantdefs>
</variantdefs>
<classes>
<class number="0" name="default" width="0" drill="0">
</class>
</classes>
<designrules name="default">
<description language="de">&lt;b&gt;EAGLE Design Rules&lt;/b&gt;
&lt;p&gt;
Die Standard-Design-Rules sind so gewählt, dass sie für 
die meisten Anwendungen passen. Sollte ihre Platine 
besondere Anforderungen haben, treffen Sie die erforderlichen
Einstellungen hier und speichern die Design Rules unter 
einem neuen Namen ab.</description>
<description language="en">&lt;b&gt;EAGLE Design Rules&lt;/b&gt;
&lt;p&gt;
The default Design Rules have been set to cover
a wide range of applications. Your particular design
may have different requirements, so please make the
necessary adjustments and save your customized
design rules under a new name.</description>
<param name="layerSetup" value="(1*16)"/>
<param name="mtCopper" value="0.035mm 0.035mm 0.035mm 0.035mm 0.035mm 0.035mm 0.035mm 0.035mm 0.035mm 0.035mm 0.035mm 0.035mm 0.035mm 0.035mm 0.035mm 0.035mm"/>
<param name="mtIsolate" value="1.5mm 0.15mm 0.2mm 0.15mm 0.2mm 0.15mm 0.2mm 0.15mm 0.2mm 0.15mm 0.2mm 0.15mm 0.2mm 0.15mm 0.2mm"/>
<param name="mdWireWire" value="6mil"/>
<param name="mdWirePad" value="6mil"/>
<param name="mdWireVia" value="6mil"/>
<param name="mdPadPad" value="6mil"/>
<param name="mdPadVia" value="6mil"/>
<param name="mdViaVia" value="6mil"/>
<param name="mdSmdPad" value="6mil"/>
<param name="mdSmdVia" value="6mil"/>
<param name="mdSmdSmd" value="6mil"/>
<param name="mdViaViaSameLayer" value="6mil"/>
<param name="mnLayersViaInSmd" value="2"/>
<param name="mdCopperDimension" value="40mil"/>
<param name="mdDrill" value="6mil"/>
<param name="mdSmdStop" value="0mil"/>
<param name="msWidth" value="6mil"/>
<param name="msDrill" value="0.35mm"/>
<param name="msMicroVia" value="9.99mm"/>
<param name="msBlindViaRatio" value="0.5"/>
<param name="rvPadTop" value="0.25"/>
<param name="rvPadInner" value="0.25"/>
<param name="rvPadBottom" value="0.25"/>
<param name="rvViaOuter" value="0.25"/>
<param name="rvViaInner" value="0.25"/>
<param name="rvMicroViaOuter" value="0.25"/>
<param name="rvMicroViaInner" value="0.25"/>
<param name="rlMinPadTop" value="10mil"/>
<param name="rlMaxPadTop" value="20mil"/>
<param name="rlMinPadInner" value="10mil"/>
<param name="rlMaxPadInner" value="20mil"/>
<param name="rlMinPadBottom" value="10mil"/>
<param name="rlMaxPadBottom" value="20mil"/>
<param name="rlMinViaOuter" value="8mil"/>
<param name="rlMaxViaOuter" value="20mil"/>
<param name="rlMinViaInner" value="8mil"/>
<param name="rlMaxViaInner" value="20mil"/>
<param name="rlMinMicroViaOuter" value="4mil"/>
<param name="rlMaxMicroViaOuter" value="20mil"/>
<param name="rlMinMicroViaInner" value="4mil"/>
<param name="rlMaxMicroViaInner" value="20mil"/>
<param name="psTop" value="-1"/>
<param name="psBottom" value="-1"/>
<param name="psFirst" value="-1"/>
<param name="psElongationLong" value="100"/>
<param name="psElongationOffset" value="100"/>
<param name="mvStopFrame" value="1"/>
<param name="mvCreamFrame" value="0"/>
<param name="mlMinStopFrame" value="4mil"/>
<param name="mlMaxStopFrame" value="4mil"/>
<param name="mlMinCreamFrame" value="0mil"/>
<param name="mlMaxCreamFrame" value="0mil"/>
<param name="mlViaStopLimit" value="0mil"/>
<param name="srRoundness" value="0"/>
<param name="srMinRoundness" value="0mil"/>
<param name="srMaxRoundness" value="0mil"/>
<param name="slThermalIsolate" value="10mil"/>
<param name="slThermalsForVias" value="0"/>
<param name="dpMaxLengthDifference" value="10mm"/>
<param name="dpGapFactor" value="2.5"/>
<param name="checkGrid" value="0"/>
<param name="checkAngle" value="0"/>
<param name="checkFont" value="1"/>
<param name="checkRestrict" value="1"/>
<param name="useDiameter" value="13"/>
<param name="maxErrors" value="50"/>
</designrules>
<autorouter>
<pass name="Default">
<param name="RoutingGrid" value="12.5mil"/>
<param name="AutoGrid" value="1"/>
<param name="Efforts" value="0"/>
<param name="TopRouterVariant" value="1"/>
<param name="tpViaShape" value="round"/>
<param name="PrefDir.1" value="-"/>
<param name="PrefDir.2" value="0"/>
<param name="PrefDir.3" value="0"/>
<param name="PrefDir.4" value="0"/>
<param name="PrefDir.5" value="0"/>
<param name="PrefDir.6" value="0"/>
<param name="PrefDir.7" value="0"/>
<param name="PrefDir.8" value="0"/>
<param name="PrefDir.9" value="0"/>
<param name="PrefDir.10" value="0"/>
<param name="PrefDir.11" value="0"/>
<param name="PrefDir.12" value="0"/>
<param name="PrefDir.13" value="0"/>
<param name="PrefDir.14" value="0"/>
<param name="PrefDir.15" value="0"/>
<param name="PrefDir.16" value="|"/>
<param name="cfVia" value="8"/>
<param name="cfNonPref" value="5"/>
<param name="cfChangeDir" value="2"/>
<param name="cfOrthStep" value="2"/>
<param name="cfDiagStep" value="3"/>
<param name="cfExtdStep" value="0"/>
<param name="cfBonusStep" value="1"/>
<param name="cfMalusStep" value="1"/>
<param name="cfPadImpact" value="4"/>
<param name="cfSmdImpact" value="4"/>
<param name="cfBusImpact" value="0"/>
<param name="cfHugging" value="3"/>
<param name="cfAvoid" value="4"/>
<param name="cfPolygon" value="10"/>
<param name="cfBase.1" value="0"/>
<param name="cfBase.2" value="1"/>
<param name="cfBase.3" value="1"/>
<param name="cfBase.4" value="1"/>
<param name="cfBase.5" value="1"/>
<param name="cfBase.6" value="1"/>
<param name="cfBase.7" value="1"/>
<param name="cfBase.8" value="1"/>
<param name="cfBase.9" value="1"/>
<param name="cfBase.10" value="1"/>
<param name="cfBase.11" value="1"/>
<param name="cfBase.12" value="1"/>
<param name="cfBase.13" value="1"/>
<param name="cfBase.14" value="1"/>
<param name="cfBase.15" value="1"/>
<param name="cfBase.16" value="0"/>
<param name="mnVias" value="20"/>
<param name="mnSegments" value="9999"/>
<param name="mnExtdSteps" value="9999"/>
<param name="mnRipupLevel" value="10"/>
<param name="mnRipupSteps" value="100"/>
<param name="mnRipupTotal" value="100"/>
</pass>
<pass name="Follow-me" refer="Default" active="yes">
</pass>
<pass name="Busses" refer="Default" active="yes">
<param name="cfNonPref" value="4"/>
<param name="cfBusImpact" value="4"/>
<param name="cfHugging" value="0"/>
<param name="mnVias" value="0"/>
</pass>
<pass name="Route" refer="Default" active="yes">
</pass>
<pass name="Optimize1" refer="Default" active="yes">
<param name="cfVia" value="99"/>
<param name="cfExtdStep" value="10"/>
<param name="cfHugging" value="1"/>
<param name="mnExtdSteps" value="1"/>
<param name="mnRipupLevel" value="0"/>
</pass>
<pass name="Optimize2" refer="Optimize1" active="yes">
<param name="cfNonPref" value="0"/>
<param name="cfChangeDir" value="6"/>
<param name="cfExtdStep" value="0"/>
<param name="cfBonusStep" value="2"/>
<param name="cfMalusStep" value="2"/>
<param name="cfPadImpact" value="2"/>
<param name="cfSmdImpact" value="2"/>
<param name="cfHugging" value="0"/>
</pass>
<pass name="Optimize3" refer="Optimize2" active="yes">
<param name="cfChangeDir" value="8"/>
<param name="cfPadImpact" value="0"/>
<param name="cfSmdImpact" value="0"/>
</pass>
<pass name="Optimize4" refer="Optimize3" active="yes">
<param name="cfChangeDir" value="25"/>
</pass>
</autorouter>
<elements>
<element name="DMX" library="8mux" package="DHVQFN-16-2.5X3.5MM" value="74HC4051BQ" x="40.64" y="41.275" rot="R270">
<attribute name="PROD_ID" value="IC-13334" x="40.64" y="41.275" size="1.778" layer="27" rot="R270" display="off"/>
</element>
<element name="JP2" library="pinhead" library_urn="urn:adsk.eagle:library:325" package="1X06" package3d_urn="urn:adsk.eagle:package:22472/2" value="SENSOR/VCC IN" x="41.275" y="35.56"/>
<element name="R1" library="rcl" library_urn="urn:adsk.eagle:library:334" package="R1206" package3d_urn="urn:adsk.eagle:package:23540/2" value="10k" x="76.2" y="47.625" rot="R270"/>
<element name="R10" library="rcl" library_urn="urn:adsk.eagle:library:334" package="R1206" package3d_urn="urn:adsk.eagle:package:23540/2" value="100" x="33.02" y="60.325" rot="R90"/>
<element name="R11" library="rcl" library_urn="urn:adsk.eagle:library:334" package="R1206" package3d_urn="urn:adsk.eagle:package:23540/2" value="10k" x="25.4" y="47.625" rot="R270"/>
<element name="R12" library="rcl" library_urn="urn:adsk.eagle:library:334" package="R1206" package3d_urn="urn:adsk.eagle:package:23540/2" value="100" x="22.86" y="60.325" rot="R90"/>
<element name="R13" library="rcl" library_urn="urn:adsk.eagle:library:334" package="R1206" package3d_urn="urn:adsk.eagle:package:23540/2" value="10k" x="15.24" y="47.625" rot="R270"/>
<element name="R14" library="rcl" library_urn="urn:adsk.eagle:library:334" package="R1206" package3d_urn="urn:adsk.eagle:package:23540/2" value="100" x="12.7" y="60.325" rot="R90"/>
<element name="R2" library="rcl" library_urn="urn:adsk.eagle:library:334" package="R1206" package3d_urn="urn:adsk.eagle:package:23540/2" value="10k" x="66.04" y="47.625" rot="R270"/>
<element name="R3" library="rcl" library_urn="urn:adsk.eagle:library:334" package="R1206" package3d_urn="urn:adsk.eagle:package:23540/2" value="100" x="63.5" y="60.325" rot="R90"/>
<element name="R4" library="rcl" library_urn="urn:adsk.eagle:library:334" package="R1206" package3d_urn="urn:adsk.eagle:package:23540/2" value="10k" x="55.88" y="47.625" rot="R270"/>
<element name="R5" library="rcl" library_urn="urn:adsk.eagle:library:334" package="R1206" package3d_urn="urn:adsk.eagle:package:23540/2" value="100" x="53.34" y="60.325" rot="R90"/>
<element name="R6" library="rcl" library_urn="urn:adsk.eagle:library:334" package="R1206" package3d_urn="urn:adsk.eagle:package:23540/2" value="10k" x="45.72" y="47.625" rot="R270"/>
<element name="R7" library="rcl" library_urn="urn:adsk.eagle:library:334" package="R1206" package3d_urn="urn:adsk.eagle:package:23540/2" value="100" x="43.18" y="60.325" rot="R90"/>
<element name="R8" library="rcl" library_urn="urn:adsk.eagle:library:334" package="R1206" package3d_urn="urn:adsk.eagle:package:23540/2" value="100" x="73.66" y="60.325" rot="R90"/>
<element name="R9" library="rcl" library_urn="urn:adsk.eagle:library:334" package="R1206" package3d_urn="urn:adsk.eagle:package:23540/2" value="10k" x="35.56" y="47.625" rot="R270"/>
<element name="SENSOR1" library="SparkFun-Sensors" library_urn="urn:adsk.eagle:library:534" package="QRE1113-W" package3d_urn="urn:adsk.eagle:package:39944/1" value="S1" x="74.93" y="53.975" rot="R270">
<attribute name="PROD_ID" value="IC-09357" x="74.93" y="53.975" size="1.778" layer="27" rot="R270" display="off"/>
<attribute name="SF_ID" value="COM-09542" x="74.93" y="53.975" size="1.778" layer="27" rot="R270" display="off"/>
</element>
<element name="SENSOR2" library="SparkFun-Sensors" library_urn="urn:adsk.eagle:library:534" package="QRE1113-W" package3d_urn="urn:adsk.eagle:package:39944/1" value="S2" x="64.77" y="53.975" rot="R270">
<attribute name="PROD_ID" value="IC-09357" x="64.77" y="53.975" size="1.778" layer="27" rot="R270" display="off"/>
<attribute name="SF_ID" value="COM-09542" x="64.77" y="53.975" size="1.778" layer="27" rot="R270" display="off"/>
</element>
<element name="SENSOR3" library="SparkFun-Sensors" library_urn="urn:adsk.eagle:library:534" package="QRE1113-W" package3d_urn="urn:adsk.eagle:package:39944/1" value="S3" x="54.61" y="53.975" rot="R270">
<attribute name="PROD_ID" value="IC-09357" x="54.61" y="53.975" size="1.778" layer="27" rot="R270" display="off"/>
<attribute name="SF_ID" value="COM-09542" x="54.61" y="53.975" size="1.778" layer="27" rot="R270" display="off"/>
</element>
<element name="SENSOR4" library="SparkFun-Sensors" library_urn="urn:adsk.eagle:library:534" package="QRE1113-W" package3d_urn="urn:adsk.eagle:package:39944/1" value="S4" x="44.45" y="53.975" rot="R270">
<attribute name="PROD_ID" value="IC-09357" x="44.45" y="53.975" size="1.778" layer="27" rot="R270" display="off"/>
<attribute name="SF_ID" value="COM-09542" x="44.45" y="53.975" size="1.778" layer="27" rot="R270" display="off"/>
</element>
<element name="SENSOR5" library="SparkFun-Sensors" library_urn="urn:adsk.eagle:library:534" package="QRE1113-W" package3d_urn="urn:adsk.eagle:package:39944/1" value="S5" x="34.29" y="53.975" rot="R270">
<attribute name="PROD_ID" value="IC-09357" x="34.29" y="53.975" size="1.778" layer="27" rot="R270" display="off"/>
<attribute name="SF_ID" value="COM-09542" x="34.29" y="53.975" size="1.778" layer="27" rot="R270" display="off"/>
</element>
<element name="SENSOR6" library="SparkFun-Sensors" library_urn="urn:adsk.eagle:library:534" package="QRE1113-W" package3d_urn="urn:adsk.eagle:package:39944/1" value="S6" x="24.13" y="53.975" rot="R270">
<attribute name="PROD_ID" value="IC-09357" x="24.13" y="53.975" size="1.778" layer="27" rot="R270" display="off"/>
<attribute name="SF_ID" value="COM-09542" x="24.13" y="53.975" size="1.778" layer="27" rot="R270" display="off"/>
</element>
<element name="SENSOR7" library="SparkFun-Sensors" library_urn="urn:adsk.eagle:library:534" package="QRE1113-W" package3d_urn="urn:adsk.eagle:package:39944/1" value="S7" x="13.97" y="53.975" rot="R270">
<attribute name="PROD_ID" value="IC-09357" x="13.97" y="53.975" size="1.778" layer="27" rot="R270" display="off"/>
<attribute name="SF_ID" value="COM-09542" x="13.97" y="53.975" size="1.778" layer="27" rot="R270" display="off"/>
</element>
</elements>
<signals>
<signal name="3V3">
<contactref element="R1" pad="2"/>
<contactref element="R8" pad="2"/>
<contactref element="R2" pad="2"/>
<contactref element="R3" pad="2"/>
<contactref element="R4" pad="2"/>
<contactref element="R5" pad="2"/>
<contactref element="R6" pad="2"/>
<contactref element="R7" pad="2"/>
<contactref element="R9" pad="2"/>
<contactref element="R10" pad="2"/>
<contactref element="R11" pad="2"/>
<contactref element="R12" pad="2"/>
<contactref element="R13" pad="2"/>
<contactref element="R14" pad="2"/>
<contactref element="JP2" pad="6"/>
<contactref element="DMX" pad="16"/>
<contactref element="DMX" pad="EP"/>
<wire x1="73.66" y1="61.747" x2="63.5" y2="61.747" width="0.3048" layer="1"/>
<wire x1="63.5" y1="61.747" x2="53.34" y2="61.747" width="0.3048" layer="1"/>
<wire x1="53.34" y1="61.747" x2="43.18" y2="61.747" width="0.3048" layer="1"/>
<wire x1="43.18" y1="61.747" x2="33.02" y2="61.747" width="0.3048" layer="1"/>
<wire x1="33.02" y1="61.747" x2="22.86" y2="61.747" width="0.3048" layer="1"/>
<wire x1="22.86" y1="61.747" x2="12.7" y2="61.747" width="0.3048" layer="1"/>
<wire x1="66.04" y1="46.203" x2="76.2" y2="46.203" width="0.3048" layer="1"/>
<wire x1="55.88" y1="46.203" x2="66.04" y2="46.203" width="0.3048" layer="1"/>
<wire x1="53.34" y1="46.203" x2="55.88" y2="46.203" width="0.3048" layer="1"/>
<wire x1="53.34" y1="46.203" x2="45.72" y2="46.203" width="0.3048" layer="1"/>
<wire x1="40.89" y1="46.203" x2="45.72" y2="46.203" width="0.3048" layer="1"/>
<wire x1="40.89" y1="46.203" x2="35.56" y2="46.203" width="0.3048" layer="1"/>
<wire x1="35.56" y1="46.203" x2="25.4" y2="46.203" width="0.3048" layer="1"/>
<wire x1="25.4" y1="46.203" x2="15.24" y2="46.203" width="0.3048" layer="1"/>
<wire x1="40.89" y1="46.203" x2="40.89" y2="43.075" width="0.3048" layer="1"/>
<wire x1="40.89" y1="43.075" x2="40.89" y2="41.525" width="0.3048" layer="1"/>
<wire x1="40.89" y1="41.525" x2="40.64" y2="41.275" width="0.3048" layer="1"/>
<wire x1="47.625" y1="35.56" x2="53.34" y2="35.56" width="0.3048" layer="1"/>
<wire x1="53.34" y1="35.56" x2="53.34" y2="46.203" width="0.3048" layer="1"/>
<wire x1="76.2" y1="46.203" x2="78.105" y2="46.203" width="0.3048" layer="1"/>
<wire x1="78.105" y1="59.69" x2="76.2" y2="61.595" width="0.3048" layer="1"/>
<wire x1="76.2" y1="61.595" x2="73.812" y2="61.595" width="0.3048" layer="1"/>
<wire x1="73.812" y1="61.595" x2="73.66" y2="61.747" width="0.3048" layer="1"/>
<wire x1="78.105" y1="46.203" x2="78.105" y2="59.69" width="0.3048" layer="1"/>
<wire x1="66.04" y1="46.203" x2="76.2" y2="46.203" width="0" layer="19" extent="1-16"/>
</signal>
<signal name="N$4">
<contactref element="R1" pad="1"/>
<contactref element="SENSOR1" pad="3"/>
<contactref element="DMX" pad="13"/>
<wire x1="75.83" y1="52.048" x2="75.83" y2="49.417" width="0.3048" layer="1"/>
<wire x1="75.83" y1="49.417" x2="76.2" y2="49.047" width="0.3048" layer="1"/>
<wire x1="71.12" y1="48.895" x2="76.2" y2="48.895" width="0.3048" layer="1"/>
<wire x1="76.2" y1="48.895" x2="76.2" y2="49.047" width="0.3048" layer="1"/>
<via x="71.12" y="48.895" extent="1-16" drill="0.35" diameter="1.778"/>
<via x="51.435" y="39.37" extent="1-16" drill="0.35" diameter="1.778"/>
<wire x1="48.27158125" y1="39.37" x2="51.435" y2="39.37" width="0.3048" layer="1"/>
<wire x1="41.94" y1="41.525" x2="46.11658125" y2="41.525" width="0.3048" layer="1"/>
<wire x1="46.11658125" y1="41.525" x2="48.27158125" y2="39.37" width="0.3048" layer="1"/>
<wire x1="71.12" y1="48.895" x2="51.435" y2="39.37" width="0.3048" layer="16"/>
</signal>
<signal name="N$9">
<contactref element="R8" pad="1"/>
<contactref element="SENSOR1" pad="1"/>
<wire x1="74.03" y1="55.902" x2="74.03" y2="58.533" width="0.3048" layer="1"/>
<wire x1="74.03" y1="58.533" x2="73.66" y2="58.903" width="0.3048" layer="1"/>
</signal>
<signal name="N$13">
<contactref element="R2" pad="1"/>
<contactref element="SENSOR2" pad="3"/>
<contactref element="DMX" pad="14"/>
<wire x1="65.67" y1="52.048" x2="65.67" y2="49.047" width="0.3048" layer="1"/>
<wire x1="65.67" y1="49.047" x2="66.04" y2="49.047" width="0.3048" layer="1"/>
<wire x1="66.04" y1="48.895" x2="60.96" y2="48.895" width="0.3048" layer="1"/>
<wire x1="66.04" y1="48.895" x2="66.04" y2="49.047" width="0.3048" layer="1"/>
<via x="51.435" y="41.91" extent="1-16" drill="0.35" diameter="1.778"/>
<via x="60.96" y="48.895" extent="1-16" drill="0.35" diameter="1.778"/>
<wire x1="41.94" y1="42.025" x2="51.32" y2="42.025" width="0.3048" layer="1"/>
<wire x1="51.32" y1="42.025" x2="51.435" y2="41.91" width="0.3048" layer="1" curve="-90"/>
<wire x1="60.96" y1="48.895" x2="51.435" y2="41.91" width="0.3048" layer="16"/>
</signal>
<signal name="N$14">
<contactref element="R3" pad="1"/>
<contactref element="SENSOR2" pad="1"/>
<wire x1="63.87" y1="55.902" x2="63.87" y2="58.903" width="0.3048" layer="1"/>
<wire x1="63.87" y1="58.903" x2="63.5" y2="58.903" width="0.3048" layer="1"/>
</signal>
<signal name="N$16">
<contactref element="R4" pad="1"/>
<contactref element="SENSOR3" pad="3"/>
<contactref element="DMX" pad="15"/>
<wire x1="55.51" y1="52.048" x2="55.51" y2="49.047" width="0.3048" layer="1"/>
<wire x1="55.51" y1="49.047" x2="55.88" y2="49.047" width="0.3048" layer="1"/>
<wire x1="55.88" y1="48.895" x2="51.435" y2="48.895" width="0.3048" layer="1"/>
<wire x1="55.88" y1="48.895" x2="55.88" y2="49.047" width="0.3048" layer="1"/>
<via x="51.435" y="44.45" extent="1-16" drill="0.35" diameter="1.778"/>
<via x="51.435" y="48.895" extent="1-16" drill="0.35" diameter="1.778"/>
<wire x1="41.94" y1="42.525" x2="49.51" y2="42.525" width="0.3048" layer="1"/>
<wire x1="49.51" y1="42.525" x2="51.435" y2="44.45" width="0.3048" layer="1"/>
<wire x1="51.435" y1="48.895" x2="51.435" y2="44.45" width="0.3048" layer="16"/>
</signal>
<signal name="N$17">
<contactref element="R5" pad="1"/>
<contactref element="SENSOR3" pad="1"/>
<wire x1="53.71" y1="55.902" x2="53.71" y2="58.903" width="0.3048" layer="1"/>
<wire x1="53.71" y1="58.903" x2="53.34" y2="58.903" width="0.3048" layer="1"/>
</signal>
<signal name="N$19">
<contactref element="R6" pad="1"/>
<contactref element="SENSOR4" pad="3"/>
<contactref element="DMX" pad="12"/>
<wire x1="45.35" y1="52.048" x2="45.35" y2="49.047" width="0.3048" layer="1"/>
<wire x1="45.35" y1="49.047" x2="45.72" y2="49.047" width="0.3048" layer="1"/>
<wire x1="41.275" y1="48.895" x2="45.72" y2="48.895" width="0.3048" layer="1"/>
<wire x1="45.72" y1="48.895" x2="45.72" y2="49.047" width="0.3048" layer="1"/>
<via x="41.275" y="48.895" extent="1-16" drill="0.35" diameter="1.778"/>
<via x="51.435" y="36.83" extent="1-16" drill="0.35" diameter="1.778"/>
<wire x1="41.94" y1="41.025" x2="45.335" y2="41.025" width="0.3048" layer="1"/>
<wire x1="49.53" y1="36.83" x2="51.435" y2="36.83" width="0.3048" layer="1"/>
<wire x1="45.335" y1="41.025" x2="49.53" y2="36.83" width="0.3048" layer="1"/>
<wire x1="41.275" y1="48.895" x2="51.435" y2="36.83" width="0.3048" layer="16"/>
</signal>
<signal name="N$20">
<contactref element="R7" pad="1"/>
<contactref element="SENSOR4" pad="1"/>
<wire x1="43.55" y1="55.902" x2="43.55" y2="58.903" width="0.3048" layer="1"/>
<wire x1="43.55" y1="58.903" x2="43.18" y2="58.903" width="0.3048" layer="1"/>
</signal>
<signal name="N$22">
<contactref element="R9" pad="1"/>
<contactref element="SENSOR5" pad="3"/>
<contactref element="DMX" pad="1"/>
<wire x1="35.19" y1="52.048" x2="35.19" y2="49.047" width="0.3048" layer="1"/>
<wire x1="35.19" y1="49.047" x2="35.56" y2="49.047" width="0.3048" layer="1"/>
<wire x1="35.56" y1="48.895" x2="30.48" y2="48.895" width="0.3048" layer="1"/>
<wire x1="35.56" y1="48.895" x2="35.56" y2="49.047" width="0.3048" layer="1"/>
<via x="31.75" y="44.45" extent="1-16" drill="0.35" diameter="1.778"/>
<via x="30.48" y="48.895" extent="1-16" drill="0.35" diameter="1.778"/>
<wire x1="40.39" y1="43.075" x2="40.39" y2="44.45" width="0.3048" layer="1"/>
<wire x1="40.39" y1="44.45" x2="31.75" y2="44.45" width="0.3048" layer="1"/>
<wire x1="30.48" y1="48.895" x2="31.75" y2="44.45" width="0.3048" layer="16"/>
</signal>
<signal name="N$23">
<contactref element="R10" pad="1"/>
<contactref element="SENSOR5" pad="1"/>
<wire x1="33.39" y1="55.902" x2="33.39" y2="58.903" width="0.3048" layer="1"/>
<wire x1="33.39" y1="58.903" x2="33.02" y2="58.903" width="0.3048" layer="1"/>
</signal>
<signal name="N$25">
<contactref element="R11" pad="1"/>
<contactref element="SENSOR6" pad="3"/>
<contactref element="DMX" pad="5"/>
<wire x1="25.03" y1="52.048" x2="25.03" y2="49.047" width="0.3048" layer="1"/>
<wire x1="25.03" y1="49.047" x2="25.4" y2="49.047" width="0.3048" layer="1"/>
<wire x1="25.4" y1="48.895" x2="20.32" y2="48.895" width="0.3048" layer="1"/>
<wire x1="25.4" y1="48.895" x2="25.4" y2="49.047" width="0.3048" layer="1"/>
<via x="31.75" y="40.005" extent="1-16" drill="0.35" diameter="1.778"/>
<via x="20.32" y="48.895" extent="1-16" drill="0.35" diameter="1.778"/>
<wire x1="20.32" y1="48.895" x2="31.75" y2="40.005" width="0.3048" layer="16"/>
<wire x1="39.34" y1="41.025" x2="33.655" y2="41.025" width="0.3048" layer="1"/>
<wire x1="33.655" y1="41.025" x2="33.655" y2="40.005" width="0.3048" layer="1"/>
<wire x1="33.655" y1="40.005" x2="31.75" y2="40.005" width="0.3048" layer="1"/>
</signal>
<signal name="N$26">
<contactref element="R12" pad="1"/>
<contactref element="SENSOR6" pad="1"/>
<wire x1="23.23" y1="55.902" x2="23.23" y2="58.903" width="0.3048" layer="1"/>
<wire x1="23.23" y1="58.903" x2="22.86" y2="58.903" width="0.3048" layer="1"/>
</signal>
<signal name="N$28">
<contactref element="R13" pad="1"/>
<contactref element="SENSOR7" pad="3"/>
<contactref element="DMX" pad="2"/>
<wire x1="14.87" y1="52.048" x2="14.87" y2="49.047" width="0.3048" layer="1"/>
<wire x1="15.24" y1="49.047" x2="14.87" y2="49.047" width="0.3048" layer="1"/>
<wire x1="15.24" y1="48.895" x2="12.065" y2="48.895" width="0.3048" layer="1"/>
<wire x1="15.24" y1="48.895" x2="15.24" y2="49.047" width="0.3048" layer="1"/>
<wire x1="12.065" y1="48.895" x2="12.065" y2="44.45" width="0.3048" layer="1"/>
<wire x1="29.845" y1="42.545" x2="27.94" y2="44.45" width="0.3048" layer="1"/>
<wire x1="12.065" y1="44.45" x2="27.94" y2="44.45" width="0.3048" layer="1"/>
<wire x1="29.865" y1="42.525" x2="29.845" y2="42.545" width="0.3048" layer="1" curve="-90"/>
<wire x1="39.34" y1="42.525" x2="29.865" y2="42.525" width="0.3048" layer="1"/>
<wire x1="29.865" y1="42.525" x2="29.845" y2="42.545" width="0.3048" layer="1"/>
</signal>
<signal name="N$29">
<contactref element="R14" pad="1"/>
<contactref element="SENSOR7" pad="1"/>
<wire x1="13.07" y1="55.902" x2="13.07" y2="58.903" width="0.3048" layer="1"/>
<wire x1="13.07" y1="58.903" x2="12.7" y2="58.903" width="0.3048" layer="1"/>
</signal>
<signal name="S0">
<contactref element="DMX" pad="11"/>
<contactref element="JP2" pad="4"/>
<wire x1="45.714209375" y1="39.364209375" x2="45.714209375" y2="38.729209375" width="0.3048" layer="1"/>
<wire x1="45.714209375" y1="38.729209375" x2="42.545" y2="35.56" width="0.3048" layer="1"/>
<wire x1="41.94" y1="40.525" x2="44.55341875" y2="40.525" width="0.3048" layer="1"/>
<wire x1="44.55341875" y1="40.525" x2="45.714209375" y2="39.364209375" width="0.3048" layer="1"/>
</signal>
<signal name="S1">
<contactref element="DMX" pad="10"/>
<contactref element="JP2" pad="3"/>
<wire x1="41.94" y1="40.025" x2="44.4068375" y2="40.025" width="0.3048" layer="1"/>
<wire x1="44.45" y1="39.9818375" x2="44.45" y2="39.37" width="0.3048" layer="1"/>
<wire x1="44.45" y1="39.37" x2="42.1386" y2="37.3888" width="0.3048" layer="1"/>
<wire x1="42.1386" y1="37.3888" x2="42.1031125" y2="37.3888" width="0.3048" layer="1"/>
<wire x1="42.1031125" y1="37.3888" x2="41.8901875" y2="37.175875" width="0.3048" layer="1"/>
<wire x1="41.8901875" y1="37.175875" x2="40.005" y2="35.56" width="0.3048" layer="1"/>
<wire x1="44.4068375" y1="40.025" x2="44.45" y2="39.9818375" width="0.3048" layer="1"/>
</signal>
<signal name="S2">
<contactref element="DMX" pad="9"/>
<contactref element="JP2" pad="2"/>
<wire x1="40.89" y1="39.475" x2="40.89" y2="37.465" width="0.3048" layer="1"/>
<wire x1="40.89" y1="37.465" x2="37.465" y2="37.465" width="0.3048" layer="1"/>
<wire x1="37.465" y1="37.465" x2="37.465" y2="35.56" width="0.3048" layer="1"/>
</signal>
<signal name="A">
<contactref element="DMX" pad="3"/>
<contactref element="JP2" pad="1"/>
<wire x1="29.845" y1="41.91" x2="29.845" y2="38.1" width="0.3048" layer="1"/>
<wire x1="29.845" y1="38.1" x2="34.925" y2="38.1" width="0.3048" layer="1"/>
<wire x1="34.925" y1="38.1" x2="34.925" y2="35.56" width="0.3048" layer="1"/>
<wire x1="39.34" y1="42.025" x2="29.96" y2="42.025" width="0.3048" layer="1"/>
<wire x1="29.96" y1="42.025" x2="29.845" y2="41.91" width="0.3048" layer="1" curve="90"/>
</signal>
<signal name="GND">
<contactref element="JP2" pad="5"/>
<contactref element="DMX" pad="6"/>
<contactref element="DMX" pad="8"/>
<contactref element="DMX" pad="7"/>
<contactref element="SENSOR1" pad="4"/>
<contactref element="SENSOR1" pad="2"/>
<contactref element="SENSOR2" pad="4"/>
<contactref element="SENSOR2" pad="2"/>
<contactref element="SENSOR3" pad="4"/>
<contactref element="SENSOR3" pad="2"/>
<contactref element="SENSOR4" pad="4"/>
<contactref element="SENSOR4" pad="2"/>
<contactref element="SENSOR5" pad="4"/>
<contactref element="SENSOR5" pad="2"/>
<contactref element="SENSOR6" pad="4"/>
<contactref element="SENSOR6" pad="2"/>
<contactref element="SENSOR7" pad="4"/>
<contactref element="SENSOR7" pad="2"/>
<wire x1="13.07" y1="52.048" x2="13.07" y2="53.975" width="0.3048" layer="1"/>
<wire x1="14.87" y1="55.902" x2="14.87" y2="53.975" width="0.3048" layer="1"/>
<wire x1="13.07" y1="53.975" x2="14.87" y2="53.975" width="0.3048" layer="1"/>
<wire x1="23.23" y1="53.975" x2="23.23" y2="52.048" width="0.3048" layer="1"/>
<wire x1="25.03" y1="55.902" x2="25.03" y2="53.975" width="0.3048" layer="1"/>
<wire x1="23.23" y1="53.975" x2="25.03" y2="53.975" width="0.3048" layer="1"/>
<wire x1="33.39" y1="53.975" x2="33.39" y2="52.048" width="0.3048" layer="1"/>
<wire x1="43.55" y1="52.048" x2="43.55" y2="53.975" width="0.3048" layer="1"/>
<wire x1="53.71" y1="52.048" x2="53.71" y2="53.975" width="0.3048" layer="1"/>
<wire x1="63.87" y1="52.048" x2="63.87" y2="53.975" width="0.3048" layer="1"/>
<wire x1="74.03" y1="52.048" x2="74.03" y2="53.975" width="0.3048" layer="1"/>
<wire x1="35.19" y1="53.975" x2="35.19" y2="55.902" width="0.3048" layer="1"/>
<wire x1="33.39" y1="53.975" x2="35.19" y2="53.975" width="0.3048" layer="1"/>
<wire x1="45.35" y1="53.975" x2="45.35" y2="55.902" width="0.3048" layer="1"/>
<wire x1="43.55" y1="53.975" x2="45.35" y2="53.975" width="0.3048" layer="1"/>
<wire x1="55.51" y1="53.975" x2="55.51" y2="55.902" width="0.3048" layer="1"/>
<wire x1="53.71" y1="53.975" x2="55.51" y2="53.975" width="0.3048" layer="1"/>
<wire x1="65.67" y1="53.975" x2="65.67" y2="55.902" width="0.3048" layer="1"/>
<wire x1="63.87" y1="53.975" x2="65.67" y2="53.975" width="0.3048" layer="1"/>
<wire x1="75.83" y1="53.975" x2="75.83" y2="55.902" width="0.3048" layer="1"/>
<wire x1="74.03" y1="53.975" x2="75.83" y2="53.975" width="0.3048" layer="1"/>
<wire x1="14.87" y1="53.975" x2="23.23" y2="53.975" width="0.3048" layer="1"/>
<wire x1="25.03" y1="53.975" x2="33.39" y2="53.975" width="0.3048" layer="1"/>
<wire x1="35.19" y1="53.975" x2="43.55" y2="53.975" width="0.3048" layer="1"/>
<wire x1="45.35" y1="53.975" x2="53.71" y2="53.975" width="0.3048" layer="1"/>
<wire x1="55.51" y1="53.975" x2="63.87" y2="53.975" width="0.3048" layer="1"/>
<wire x1="65.67" y1="53.975" x2="74.03" y2="53.975" width="0.3048" layer="1"/>
<wire x1="39.34" y1="40.525" x2="36.195" y2="40.525" width="0.3048" layer="1"/>
<wire x1="36.195" y1="40.025" x2="36.195" y2="40.525" width="0.3048" layer="1"/>
<wire x1="36.195" y1="38.1" x2="36.195" y2="40.025" width="0.3048" layer="1"/>
<wire x1="36.195" y1="33.655" x2="36.195" y2="38.1" width="0.3048" layer="1"/>
<wire x1="36.195" y1="33.655" x2="45.085" y2="33.655" width="0.3048" layer="1"/>
<wire x1="45.085" y1="33.655" x2="45.085" y2="35.56" width="0.3048" layer="1"/>
<wire x1="39.34" y1="40.025" x2="36.195" y2="40.025" width="0.3048" layer="1"/>
<wire x1="40.39" y1="39.475" x2="40.39" y2="38.1" width="0.3048" layer="1"/>
<wire x1="40.39" y1="38.1" x2="36.195" y2="38.1" width="0.3048" layer="1"/>
<wire x1="11.43" y1="53.975" x2="11.43" y2="43.815" width="0.3048" layer="1"/>
<wire x1="11.43" y1="43.815" x2="27.29341875" y2="43.815" width="0.3048" layer="1"/>
<wire x1="27.29341875" y1="43.815" x2="29.204209375" y2="41.904209375" width="0.3048" layer="1"/>
<wire x1="29.204209375" y1="41.904209375" x2="29.204209375" y2="37.465" width="0.3048" layer="1"/>
<wire x1="29.204209375" y1="37.465" x2="33.02" y2="37.465" width="0.3048" layer="1"/>
<wire x1="33.02" y1="37.465" x2="33.02" y2="33.655" width="0.3048" layer="1"/>
<wire x1="33.02" y1="33.655" x2="36.195" y2="33.655" width="0.3048" layer="1"/>
<wire x1="13.07" y1="53.975" x2="11.43" y2="53.975" width="0.3048" layer="1"/>
</signal>
<signal name="S$1">
<polygon width="0.1524" layer="1" isolate="0.6096">
<vertex x="7.62" y="66.675"/>
<vertex x="80.645" y="66.675"/>
<vertex x="81.915" y="65.405"/>
<vertex x="81.915" y="46.99"/>
<vertex x="78.74" y="43.815"/>
<vertex x="58.42" y="43.815"/>
<vertex x="56.515" y="41.91"/>
<vertex x="56.515" y="34.925"/>
<vertex x="53.975" y="32.385"/>
<vertex x="31.75" y="32.385"/>
<vertex x="22.225" y="41.91"/>
<vertex x="12.065" y="41.91"/>
<vertex x="8.255" y="45.72"/>
<vertex x="8.255" y="66.04"/>
</polygon>
</signal>
</signals>
<errors>
<approved hash="3,1,8d24e7d7b1fcdb0f"/>
<approved hash="3,1,a6fb35626354f0cd"/>
</errors>
</board>
</drawing>
<compatibility>
<note version="8.2" severity="warning">
Since Version 8.2, EAGLE supports online libraries. The ids
of those online libraries will not be understood (or retained)
with this version.
</note>
<note version="8.3" severity="warning">
Since Version 8.3, EAGLE supports URNs for individual library
assets (packages, symbols, and devices). The URNs of those assets
will not be understood (or retained) with this version.
</note>
<note version="8.3" severity="warning">
Since Version 8.3, EAGLE supports the association of 3D packages
with devices in libraries, schematics, and board files. Those 3D
packages will not be understood (or retained) with this version.
</note>
</compatibility>
</eagle>
